labs/lab3/sim/results/alu.transcript
Reading /opt/altera/13.0sp1/modelsim_ase/tcl/vsim/pref.tcl 

# 10.1d

proc start {m} {vsim work.$m}
set MODULE ALUTestbench
# ALUTestbench
start $MODULE
# vsim work.ALUTestbench 
# Loading work.ALUTestbench
# Loading work.ALUdec
# Loading work.ALU
add wave $MODULE/*
add wave $MODULE/DUT1/*
add wave $MODULE/DUT2/*
run 100us
# 
# 
#  ALL INSTRUCTIONS TESTS RANDOM
# O function abaixo nao existe na ula
# PASS: opcode 000000, funct 110010
# 	A: 0x92153524, B: 0xffffde81, DUTout: 0x00000000, REFout: 0x00000000
# PASS: opcode 001111, funct 110010
# 	A: 0x92153524, B: 0x7b0d0000, DUTout: 0x00000000, REFout: 0x00000000
# O function abaixo nao existe na ula
# PASS: opcode 000000, funct 001001
# 	A: 0xc6df998d, B: 0xffff8465, DUTout: 0x00000000, REFout: 0x00000000
# PASS: opcode 001111, funct 001001
# 	A: 0xc6df998d, B: 0x4d0d0000, DUTout: 0x00000000, REFout: 0x00000000
# O function abaixo nao existe na ula
# PASS: opcode 000000, funct 011100
# 	A: 0xbb23f176, B: 0xffffcd3d, DUTout: 0x00000000, REFout: 0x00000000
# PASS: opcode 001111, funct 011100
# 	A: 0xbb23f176, B: 0x69f90000, DUTout: 0x00000000, REFout: 0x00000000
# PASS: opcode 000000, funct 100100
# 	A: 0xe33724c6, B: 0xffff84c5, DUTout: 0xe33704c4, REFout: 0xe33704c4
# PASS: opcode 001111, funct 100100
# 	A: 0xe33724c6, B: 0x72770000, DUTout: 0x00000000, REFout: 0x00000000
# O function abaixo nao existe na ula
# PASS: opcode 000000, funct 011011
# 	A: 0x8932d612, B: 0xffffdb8f, DUTout: 0x00000000, REFout: 0x00000000
# PASS: opcode 001111, funct 011011
# 	A: 0x8932d612, B: 0x7ae80000, DUTout: 0x00000000, REFout: 0x00000000
# PASS: opcode 000000, funct 000111
# 	A: 0xe2ca4ec5, B: 0xffffc95c, DUTout: 0xfffffe4a, REFout: 0xfffffe4a
# PASS: opcode 001111, funct 000111
# 	A: 0xe2ca4ec5, B: 0x26650000, DUTout: 0x00000000, REFout: 0x00000000
# O function abaixo nao existe na ula
# PASS: opcode 000000, funct 010000
# 	A: 0xb1ef6263, B: 0xffff870a, DUTout: 0x00000000, REFout: 0x00000000
# PASS: opcode 001111, funct 010000
# 	A: 0xb1ef6263, B: 0x45aa0000, DUTout: 0x00000000, REFout: 0x00000000
# O function abaixo nao existe na ula
# PASS: opcode 000000, funct 101000
# 	A: 0xcecccc9d, B: 0xffffbe96, DUTout: 0x00000000, REFout: 0x00000000
# PASS: opcode 001111, funct 101000
# 	A: 0xcecccc9d, B: 0x56530000, DUTout: 0x00000000, REFout: 0x00000000
# O function abaixo nao existe na ula
# PASS: opcode 000000, funct 111100
# 	A: 0xb59fdd6b, B: 0xffffaad5, DUTout: 0x00000000, REFout: 0x00000000
# PASS: opcode 001111, funct 111100
# 	A: 0xb59fdd6b, B: 0x691d0000, DUTout: 0x00000000, REFout: 0x00000000
# PASS: opcode 000000, funct 101011
# 	A: 0xe7c572cf, B: 0xffffc923, DUTout: 0x00000001, REFout: 0x00000001
# PASS: opcode 001111, funct 101011
# 	A: 0xe7c572cf, B: 0x4c3c0000, DUTout: 0x00000000, REFout: 0x00000000
# PASS: opcode 000000, funct 100001
# 	A: 0xf968bdf2, B: 0xffffe18a, DUTout: 0xf9689f7c, REFout: 0xf9689f7c
# PASS: opcode 001111, funct 100001
# 	A: 0xf968bdf2, B: 0x73780000, DUTout: 0x00000000, REFout: 0x00000000
# PASS: opcode 000000, funct 100100
# 	A: 0xc48a1289, B: 0xffff8deb, DUTout: 0xc48a0089, REFout: 0xc48a0089
# PASS: opcode 001111, funct 100100
# 	A: 0xc48a1289, B: 0x13ae0000, DUTout: 0x00000000, REFout: 0x00000000
# O function abaixo nao existe na ula
# PASS: opcode 000000, funct 001000
# 	A: 0xde7502bc, B: 0xffffdd2a, DUTout: 0x00000000, REFout: 0x00000000
# PASS: opcode 001111, funct 001000
# 	A: 0xde7502bc, B: 0x41850000, DUTout: 0x00000000, REFout: 0x00000000
# PASS: opcode 000000, funct 000110
# 	A: 0xa7f2554f, B: 0xffffe03b, DUTout: 0x0001ffff, REFout: 0x0001ffff
# PASS: opcode 001111, funct 000110
# 	A: 0xa7f2554f, B: 0x4b150000, DUTout: 0x00000000, REFout: 0x00000000
# O function abaixo nao existe na ula
# PASS: opcode 000000, funct 001101
# 	A: 0xf8d99bf1, B: 0xffffcbd9, DUTout: 0x00000000, REFout: 0x00000000
# PASS: opcode 001111, funct 001101
# 	A: 0xf8d99bf1, B: 0x559f0000, DUTout: 0x00000000, REFout: 0x00000000
# PASS: opcode 000000, funct 000011
# 	A: 0xc7b9a18f, B: 0xffffa9f8, DUTout: 0xffffffff, REFout: 0xffffffff
# PASS: opcode 001111, funct 000011
# 	A: 0xc7b9a18f, B: 0x145c0000, DUTout: 0x00000000, REFout: 0x00000000
# O function abaixo nao existe na ula
# PASS: opcode 000000, funct 110011
# 	A: 0xadcbc05b, B: 0xffffb789, DUTout: 0x00000000, REFout: 0x00000000
# PASS: opcode 001111, funct 110011
# 	A: 0xadcbc05b, B: 0x40d70000, DUTout: 0x00000000, REFout: 0x00000000
# O function abaixo nao existe na ula
# PASS: opcode 000000, funct 111001
# 	A: 0xa8c7fc51, B: 0xffffaf96, DUTout: 0x00000000, REFout: 0x00000000
# PASS: opcode 001111, funct 111001
# 	A: 0xa8c7fc51, B: 0x6dc80000, DUTout: 0x00000000, REFout: 0x00000000
# O function abaixo nao existe na ula
# PASS: opcode 000000, funct 010011
# 	A: 0xbb825a77, B: 0xffffed3d, DUTout: 0x00000000, REFout: 0x00000000
# PASS: opcode 001111, funct 010011
# 	A: 0xbb825a77, B: 0x016d0000, DUTout: 0x00000000, REFout: 0x00000000
# O function abaixo nao existe na ula
# PASS: opcode 000000, funct 010000
# 	A: 0x9cd9e739, B: 0xffff8f1f, DUTout: 0x00000000, REFout: 0x00000000
# PASS: opcode 001111, funct 010000
# 	A: 0x9cd9e739, B: 0x08780000, DUTout: 0x00000000, REFout: 0x00000000
# O function abaixo nao existe na ula
# PASS: opcode 000000, funct 001010
# 	A: 0xadda595b, B: 0xffffcb49, DUTout: 0x00000000, REFout: 0x00000000
# PASS: opcode 001111, funct 001010
# 	A: 0xadda595b, B: 0x63580000, DUTout: 0x00000000, REFout: 0x00000000
# O function abaixo nao existe na ula
# PASS: opcode 000000, funct 001000
# 	A: 0xc33f3886, B: 0xffff8c8e, DUTout: 0x00000000, REFout: 0x00000000
# PASS: opcode 001111, funct 001000
# 	A: 0xc33f3886, B: 0x3c260000, DUTout: 0x00000000, REFout: 0x00000000
# O function abaixo nao existe na ula
# PASS: opcode 000000, funct 111000
# 	A: 0xb9961773, B: 0xffffb4a3, DUTout: 0x00000000, REFout: 0x00000000
# PASS: opcode 001111, funct 111000
# 	A: 0xb9961773, B: 0x565f0000, DUTout: 0x00000000, REFout: 0x00000000
# O function abaixo nao existe na ula
# PASS: opcode 000000, funct 011100
# 	A: 0xa2290d44, B: 0xfffffdf7, DUTout: 0x00000000, REFout: 0x00000000
# PASS: opcode 001111, funct 011100
# 	A: 0xa2290d44, B: 0x5b5a0000, DUTout: 0x00000000, REFout: 0x00000000
# O function abaixo nao existe na ula
# PASS: opcode 000000, funct 010111
# 	A: 0x94cfc129, B: 0xffffe2ed, DUTout: 0x00000000, REFout: 0x00000000
# PASS: opcode 001111, funct 010111
# 	A: 0x94cfc129, B: 0x62b50000, DUTout: 0x00000000, REFout: 0x00000000
# O function abaixo nao existe na ula
# PASS: opcode 000000, funct 001101
# 	A: 0xefbe94df, B: 0xffff9979, DUTout: 0x00000000, REFout: 0x00000000
# PASS: opcode 001111, funct 001101
# 	A: 0xefbe94df, B: 0x0b2a0000, DUTout: 0x00000000, REFout: 0x00000000
# O function abaixo nao existe na ula
# PASS: opcode 000000, funct 100000
# 	A: 0xd5f6adab, B: 0xffffcf0e, DUTout: 0x00000000, REFout: 0x00000000
# PASS: opcode 001111, funct 100000
# 	A: 0xd5f6adab, B: 0x72fd0000, DUTout: 0x00000000, REFout: 0x00000000
# O function abaixo nao existe na ula
# PASS: opcode 000000, funct 000101
# 	A: 0xe1f102c3, B: 0xffffed56, DUTout: 0x00000000, REFout: 0x00000000
# PASS: opcode 001111, funct 000101
# 	A: 0xe1f102c3, B: 0x340a0000, DUTout: 0x00000000, REFout: 0x00000000
# O function abaixo nao existe na ula
# PASS: opcode 000000, funct 110001
# 	A: 0xdb6fb9b6, B: 0xffff8a38, DUTout: 0x00000000, REFout: 0x00000000
# PASS: opcode 001111, funct 110001
# 	A: 0xdb6fb9b6, B: 0x3f940000, DUTout: 0x00000000, REFout: 0x00000000
# O function abaixo nao existe na ula
# PASS: opcode 000000, funct 011011
# 	A: 0xc9c65d93, B: 0xffffac04, DUTout: 0x00000000, REFout: 0x00000000
# PASS: opcode 001111, funct 011011
# 	A: 0xc9c65d93, B: 0x5e4d0000, DUTout: 0x00000000, REFout: 0x00000000
# O function abaixo nao existe na ula
# PASS: opcode 000000, funct 011011
# 	A: 0xecb0b7d9, B: 0xffffa66d, DUTout: 0x00000000, REFout: 0x00000000
# PASS: opcode 001111, funct 011011
# 	A: 0xecb0b7d9, B: 0x2db60000, DUTout: 0x00000000, REFout: 0x00000000
# O function abaixo nao existe na ula
# PASS: opcode 000000, funct 010111
# 	A: 0xca937195, B: 0xffff9a46, DUTout: 0x00000000, REFout: 0x00000000
# PASS: opcode 001111, funct 010111
# 	A: 0xca937195, B: 0x07690000, DUTout: 0x00000000, REFout: 0x00000000
# O function abaixo nao existe na ula
# PASS: opcode 000000, funct 111010
# 	A: 0xda6ebab4, B: 0xffff8d88, DUTout: 0x00000000, REFout: 0x00000000
# PASS: opcode 001111, funct 111010
# 	A: 0xda6ebab4, B: 0x30c70000, DUTout: 0x00000000, REFout: 0x00000000
# PASS: opcode 000000, funct 000000
# 	A: 0x975c9c2e, B: 0xffffe408, DUTout: 0xf9020000, REFout: 0xf9020000
# PASS: opcode 001111, funct 000000
# 	A: 0x975c9c2e, B: 0x07290000, DUTout: 0x00000000, REFout: 0x00000000
# PASS: opcode 000000, funct 100001
# 	A: 0x8e37901c, B: 0xffffe786, DUTout: 0x8e3777a2, REFout: 0x8e3777a2
# PASS: opcode 001111, funct 100001
# 	A: 0x8e37901c, B: 0x27660000, DUTout: 0x00000000, REFout: 0x00000000
# O function abaixo nao existe na ula
# PASS: opcode 000000, funct 010101
# 	A: 0xb855c470, B: 0xffff8473, DUTout: 0x00000000, REFout: 0x00000000
# PASS: opcode 001111, funct 010101
# 	A: 0xb855c470, B: 0x79fa0000, DUTout: 0x00000000, REFout: 0x00000000
# O function abaixo nao existe na ula
# PASS: opcode 000000, funct 101111
# 	A: 0xea8e05d5, B: 0xfffff61a, DUTout: 0x00000000, REFout: 0x00000000
# PASS: opcode 001111, funct 101111
# 	A: 0xea8e05d5, B: 0x37960000, DUTout: 0x00000000, REFout: 0x00000000
# O function abaixo nao existe na ula
# PASS: opcode 000000, funct 001001
# 	A: 0xe03921c0, B: 0xffff9f26, DUTout: 0x00000000, REFout: 0x00000000
# PASS: opcode 001111, funct 001001
# 	A: 0xe03921c0, B: 0x0fdc0000, DUTout: 0x00000000, REFout: 0x00000000
# O function abaixo nao existe na ula
# PASS: opcode 000000, funct 001011
# 	A: 0xc3615786, B: 0xffffff78, DUTout: 0x00000000, REFout: 0x00000000
# PASS: opcode 001111, funct 001011
# 	A: 0xc3615786, B: 0x36cf0000, DUTout: 0x00000000, REFout: 0x00000000
# O function abaixo nao existe na ula
# PASS: opcode 000000, funct 101100
# 	A: 0xbced2b79, B: 0xffffe4fa, DUTout: 0x00000000, REFout: 0x00000000
# PASS: opcode 001111, funct 101100
# 	A: 0xbced2b79, B: 0x78a10000, DUTout: 0x00000000, REFout: 0x00000000
# O function abaixo nao existe na ula
# PASS: opcode 000000, funct 101000
# 	A: 0xc3779186, B: 0xffff9650, DUTout: 0x00000000, REFout: 0x00000000
# PASS: opcode 001111, funct 101000
# 	A: 0xc3779186, B: 0x0a290000, DUTout: 0x00000000, REFout: 0x00000000
# O function abaixo nao existe na ula
# PASS: opcode 000000, funct 110010
# 	A: 0xe0b175c1, B: 0xfffff4c5, DUTout: 0x00000000, REFout: 0x00000000
# PASS: opcode 001111, funct 110010
# 	A: 0xe0b175c1, B: 0x42730000, DUTout: 0x00000000, REFout: 0x00000000
# O function abaixo nao existe na ula
# PASS: opcode 000000, funct 001101
# 	A: 0xf622e6ec, B: 0xffff968a, DUTout: 0x00000000, REFout: 0x00000000
# PASS: opcode 001111, funct 001101
# 	A: 0xf622e6ec, B: 0x7da90000, DUTout: 0x00000000, REFout: 0x00000000
# O function abaixo nao existe na ula
# PASS: opcode 000000, funct 010110
# 	A: 0xd0ca8ca1, B: 0xffffb90e, DUTout: 0x00000000, REFout: 0x00000000
# PASS: opcode 001111, funct 010110
# 	A: 0xd0ca8ca1, B: 0x352a0000, DUTout: 0x00000000, REFout: 0x00000000
# O function abaixo nao existe na ula
# PASS: opcode 000000, funct 101001
# 	A: 0x955a1d2a, B: 0xfffff48d, DUTout: 0x00000000, REFout: 0x00000000
# PASS: opcode 001111, funct 101001
# 	A: 0x955a1d2a, B: 0x28790000, DUTout: 0x00000000, REFout: 0x00000000
# O function abaixo nao existe na ula
# PASS: opcode 000000, funct 111011
# 	A: 0xe464e3c8, B: 0xffffc5ca, DUTout: 0x00000000, REFout: 0x00000000
# PASS: opcode 001111, funct 111011
# 	A: 0xe464e3c8, B: 0x2ec70000, DUTout: 0x00000000, REFout: 0x00000000
# O function abaixo nao existe na ula
# PASS: opcode 000000, funct 110111
# 	A: 0xdb0bddb6, B: 0xffff9dba, DUTout: 0x00000000, REFout: 0x00000000
# PASS: opcode 001111, funct 110111
# 	A: 0xdb0bddb6, B: 0x53920000, DUTout: 0x00000000, REFout: 0x00000000
# O function abaixo nao existe na ula
# PASS: opcode 000000, funct 001100
# 	A: 0xda269ab4, B: 0xffffbb7f, DUTout: 0x00000000, REFout: 0x00000000
# PASS: opcode 001111, funct 001100
# 	A: 0xda269ab4, B: 0x14f20000, DUTout: 0x00000000, REFout: 0x00000000
# O function abaixo nao existe na ula
# PASS: opcode 000000, funct 011010
# 	A: 0x99452132, B: 0xffffdebd, DUTout: 0x00000000, REFout: 0x00000000
# PASS: opcode 001111, funct 011010
# 	A: 0x99452132, B: 0x4fca0000, DUTout: 0x00000000, REFout: 0x00000000
# PASS: opcode 000000, funct 000010
# 	A: 0xd4a879a9, B: 0xffffa8a1, DUTout: 0x007fffd4, REFout: 0x007fffd4
# PASS: opcode 001111, funct 000010
# 	A: 0xd4a879a9, B: 0x1e0b0000, DUTout: 0x00000000, REFout: 0x00000000
# O function abaixo nao existe na ula
# PASS: opcode 000000, funct 010101
# 	A: 0xf78290ef, B: 0xffffbdc9, DUTout: 0x00000000, REFout: 0x00000000
# PASS: opcode 001111, funct 010101
# 	A: 0xf78290ef, B: 0x568f0000, DUTout: 0x00000000, REFout: 0x00000000
# PASS: opcode 000000, funct 100101
# 	A: 0xb5cdbf6b, B: 0xffffe788, DUTout: 0xffffffeb, REFout: 0xffffffeb
# PASS: opcode 001111, funct 100101
# 	A: 0xb5cdbf6b, B: 0x45920000, DUTout: 0x00000000, REFout: 0x00000000
# O function abaixo nao existe na ula
# PASS: opcode 000000, funct 011111
# 	A: 0x9444df28, B: 0xffffe02d, DUTout: 0x00000000, REFout: 0x00000000
# PASS: opcode 001111, funct 011111
# 	A: 0x9444df28, B: 0x761e0000, DUTout: 0x00000000, REFout: 0x00000000
# O function abaixo nao existe na ula
# PASS: opcode 000000, funct 110111
# 	A: 0x86b3050d, B: 0xfffffdec, DUTout: 0x00000000, REFout: 0x00000000
# PASS: opcode 001111, funct 110111
# 	A: 0x86b3050d, B: 0x1c860000, DUTout: 0x00000000, REFout: 0x00000000
# O function abaixo nao existe na ula
# PASS: opcode 000000, funct 011101
# 	A: 0xa0c02441, B: 0xffffe43b, DUTout: 0x00000000, REFout: 0x00000000
# PASS: opcode 001111, funct 011101
# 	A: 0xa0c02441, B: 0x62560000, DUTout: 0x00000000, REFout: 0x00000000
# PASS: opcode 000000, funct 100110
# 	A: 0xadac225b, B: 0xfffffae2, DUTout: 0x5253d8b9, REFout: 0x5253d8b9
# PASS: opcode 001111, funct 100110
# 	A: 0xadac225b, B: 0x34d80000, DUTout: 0x00000000, REFout: 0x00000000
# O function abaixo nao existe na ula
# PASS: opcode 000000, funct 010100
# 	A: 0x893e4d12, B: 0xffffc4b8, DUTout: 0x00000000, REFout: 0x00000000
# PASS: opcode 001111, funct 010100
# 	A: 0x893e4d12, B: 0x5ca10000, DUTout: 0x00000000, REFout: 0x00000000
# O function abaixo nao existe na ula
# PASS: opcode 000000, funct 010010
# 	A: 0x95890f2b, B: 0xffffdd81, DUTout: 0x00000000, REFout: 0x00000000
# PASS: opcode 001111, funct 010010
# 	A: 0x95890f2b, B: 0x79a10000, DUTout: 0x00000000, REFout: 0x00000000
# PASS: opcode 000000, funct 000110
# 	A: 0x8f8c6e1f, B: 0xffffba04, DUTout: 0x00000001, REFout: 0x00000001
# PASS: opcode 001111, funct 000110
# 	A: 0x8f8c6e1f, B: 0x13140000, DUTout: 0x00000000, REFout: 0x00000000
# O function abaixo nao existe na ula
# PASS: opcode 000000, funct 110011
# 	A: 0x8919b412, B: 0xfffff096, DUTout: 0x00000000, REFout: 0x00000000
# PASS: opcode 001111, funct 110011
# 	A: 0x8919b412, B: 0x0eed0000, DUTout: 0x00000000, REFout: 0x00000000
# O function abaixo nao existe na ula
# PASS: opcode 000000, funct 001000
# 	A: 0x958b2b2b, B: 0xffff9bf5, DUTout: 0x00000000, REFout: 0x00000000
# PASS: opcode 001111, funct 001000
# 	A: 0x958b2b2b, B: 0x7f840000, DUTout: 0x00000000, REFout: 0x00000000
# PASS: opcode 000000, funct 100101
# 	A: 0xd3a8e4a7, B: 0xffffa6e7, DUTout: 0xffffe6e7, REFout: 0xffffe6e7
# PASS: opcode 001111, funct 100101
# 	A: 0xd3a8e4a7, B: 0x3bdb0000, DUTout: 0x00000000, REFout: 0x00000000
# O function abaixo nao existe na ula
# PASS: opcode 000000, funct 110011
# 	A: 0xe4ba0fc9, B: 0xffffb151, DUTout: 0x00000000, REFout: 0x00000000
# PASS: opcode 001111, funct 110011
# 	A: 0xe4ba0fc9, B: 0x45fa0000, DUTout: 0x00000000, REFout: 0x00000000
# O function abaixo nao existe na ula
# PASS: opcode 000000, funct 110010
# 	A: 0xa2e62045, B: 0xffff8583, DUTout: 0x00000000, REFout: 0x00000000
# PASS: opcode 001111, funct 110010
# 	A: 0xa2e62045, B: 0x3cfe0000, DUTout: 0x00000000, REFout: 0x00000000
# O function abaixo nao existe na ula
# PASS: opcode 000000, funct 101100
# 	A: 0xb455f268, B: 0xffffaa6f, DUTout: 0x00000000, REFout: 0x00000000
# PASS: opcode 001111, funct 101100
# 	A: 0xb455f268, B: 0x17380000, DUTout: 0x00000000, REFout: 0x00000000
# O function abaixo nao existe na ula
# PASS: opcode 000000, funct 110111
# 	A: 0xa0769140, B: 0xfffff628, DUTout: 0x00000000, REFout: 0x00000000
# PASS: opcode 001111, funct 110111
# 	A: 0xa0769140, B: 0x31c00000, DUTout: 0x00000000, REFout: 0x00000000
# PASS: opcode 000000, funct 000111
# 	A: 0xba625f74, B: 0xfffff139, DUTout: 0xffffffff, REFout: 0xffffffff
# PASS: opcode 001111, funct 000111
# 	A: 0xba625f74, B: 0x132a0000, DUTout: 0x00000000, REFout: 0x00000000
# O function abaixo nao existe na ula
# PASS: opcode 000000, funct 111001
# 	A: 0xb124d362, B: 0xffffb515, DUTout: 0x00000000, REFout: 0x00000000
# PASS: opcode 001111, funct 111001
# 	A: 0xb124d362, B: 0x6e430000, DUTout: 0x00000000, REFout: 0x00000000
# PASS: opcode 000000, funct 000010
# 	A: 0xe4b5e3c9, B: 0xffff8486, DUTout: 0x007fffc2, REFout: 0x007fffc2
# PASS: opcode 001111, funct 000010
# 	A: 0xe4b5e3c9, B: 0x228d0000, DUTout: 0x00000000, REFout: 0x00000000
# O function abaixo nao existe na ula
# PASS: opcode 000000, funct 101110
# 	A: 0xad67e25a, B: 0xffffa707, DUTout: 0x00000000, REFout: 0x00000000
# PASS: opcode 001111, funct 101110
# 	A: 0xad67e25a, B: 0x66710000, DUTout: 0x00000000, REFout: 0x00000000
# O function abaixo nao existe na ula
# PASS: opcode 000000, funct 111100
# 	A: 0x9de17c3b, B: 0xffffe5b6, DUTout: 0x00000000, REFout: 0x00000000
# PASS: opcode 001111, funct 111100
# 	A: 0x9de17c3b, B: 0x585c0000, DUTout: 0x00000000, REFout: 0x00000000
# PASS: opcode 000000, funct 101010
# 	A: 0xaab8f755, B: 0xffffba20, DUTout: 0x00000001, REFout: 0x00000001
# PASS: opcode 001111, funct 101010
# 	A: 0xaab8f755, B: 0x0cb40000, DUTout: 0x00000000, REFout: 0x00000000
# O function abaixo nao existe na ula
# PASS: opcode 000000, funct 111001
# 	A: 0xee8af5dd, B: 0xfffff00d, DUTout: 0x00000000, REFout: 0x00000000
# PASS: opcode 001111, funct 111001
# 	A: 0xee8af5dd, B: 0x5a9e0000, DUTout: 0x00000000, REFout: 0x00000000
# O function abaixo nao existe na ula
# PASS: opcode 000000, funct 011001
# 	A: 0xfef064fd, B: 0xffffd27b, DUTout: 0x00000000, REFout: 0x00000000
# PASS: opcode 001111, funct 011001
# 	A: 0xfef064fd, B: 0x29e30000, DUTout: 0x00000000, REFout: 0x00000000
# O function abaixo nao existe na ula
# PASS: opcode 000000, funct 001000
# 	A: 0x8e92431d, B: 0xffffbdb1, DUTout: 0x00000000, REFout: 0x00000000
# PASS: opcode 001111, funct 001000
# 	A: 0x8e92431d, B: 0x34e00000, DUTout: 0x00000000, REFout: 0x00000000
# O function abaixo nao existe na ula
# PASS: opcode 000000, funct 110101
# 	A: 0xf6a178ed, B: 0xffff9552, DUTout: 0x00000000, REFout: 0x00000000
# PASS: opcode 001111, funct 110101
# 	A: 0xf6a178ed, B: 0x44520000, DUTout: 0x00000000, REFout: 0x00000000
# O function abaixo nao existe na ula
# PASS: opcode 000000, funct 101001
# 	A: 0xc219e784, B: 0xfffffd46, DUTout: 0x00000000, REFout: 0x00000000
# PASS: opcode 001111, funct 101001
# 	A: 0xc219e784, B: 0x41170000, DUTout: 0x00000000, REFout: 0x00000000
# PASS: opcode 000000, funct 000110
# 	A: 0xb52d616a, B: 0xffffd784, DUTout: 0x003ffff5, REFout: 0x003ffff5
# PASS: opcode 001111, funct 000110
# 	A: 0xb52d616a, B: 0x02600000, DUTout: 0x00000000, REFout: 0x00000000
# O function abaixo nao existe na ula
# PASS: opcode 000000, funct 000101
# 	A: 0xdd4a4dba, B: 0xffffe08b, DUTout: 0x00000000, REFout: 0x00000000
# PASS: opcode 001111, funct 000101
# 	A: 0xdd4a4dba, B: 0x03320000, DUTout: 0x00000000, REFout: 0x00000000
# O function abaixo nao existe na ula
# PASS: opcode 000000, funct 101101
# 	A: 0xd10504a2, B: 0xfffffc49, DUTout: 0x00000000, REFout: 0x00000000
# PASS: opcode 001111, funct 101101
# 	A: 0xd10504a2, B: 0x034b0000, DUTout: 0x00000000, REFout: 0x00000000
# PASS: opcode 000000, funct 100100
# 	A: 0xae68305c, B: 0xfffff547, DUTout: 0xae683044, REFout: 0xae683044
# PASS: opcode 001111, funct 100100
# 	A: 0xae68305c, B: 0x0ab40000, DUTout: 0x00000000, REFout: 0x00000000
# O function abaixo nao existe na ula
# PASS: opcode 000000, funct 111100
# 	A: 0xe851e5d0, B: 0xffffd02c, DUTout: 0x00000000, REFout: 0x00000000
# PASS: opcode 001111, funct 111100
# 	A: 0xe851e5d0, B: 0x406a0000, DUTout: 0x00000000, REFout: 0x00000000
# O function abaixo nao existe na ula
# PASS: opcode 000000, funct 110100
# 	A: 0x8895f911, B: 0xffffffe8, DUTout: 0x00000000, REFout: 0x00000000
# PASS: opcode 001111, funct 110100
# 	A: 0x8895f911, B: 0x5bec0000, DUTout: 0x00000000, REFout: 0x00000000
# PASS: opcode 000000, funct 000011
# 	A: 0x91fe0523, B: 0xffffefa4, DUTout: 0xfffffdf4, REFout: 0xfffffdf4
# PASS: opcode 001111, funct 000011
# 	A: 0x91fe0523, B: 0x72df0000, DUTout: 0x00000000, REFout: 0x00000000
# O function abaixo nao existe na ula
# PASS: opcode 000000, funct 111110
# 	A: 0xea5814d4, B: 0xffffe567, DUTout: 0x00000000, REFout: 0x00000000
# PASS: opcode 001111, funct 111110
# 	A: 0xea5814d4, B: 0x39820000, DUTout: 0x00000000, REFout: 0x00000000
# O function abaixo nao existe na ula
# PASS: opcode 000000, funct 110010
# 	A: 0xa4d2bf49, B: 0xffff9ad9, DUTout: 0x00000000, REFout: 0x00000000
# PASS: opcode 001111, funct 110010
# 	A: 0xa4d2bf49, B: 0x6f930000, DUTout: 0x00000000, REFout: 0x00000000
# O function abaixo nao existe na ula
# PASS: opcode 000000, funct 110000
# 	A: 0xf1b461e3, B: 0xffff822a, DUTout: 0x00000000, REFout: 0x00000000
# PASS: opcode 001111, funct 110000
# 	A: 0xf1b461e3, B: 0x1d3a0000, DUTout: 0x00000000, REFout: 0x00000000
# O function abaixo nao existe na ula
# PASS: opcode 000000, funct 011111
# 	A: 0xc226a984, B: 0xffffa82b, DUTout: 0x00000000, REFout: 0x00000000
# PASS: opcode 001111, funct 011111
# 	A: 0xc226a984, B: 0x00520000, DUTout: 0x00000000, REFout: 0x00000000
# O function abaixo nao existe na ula
# PASS: opcode 000000, funct 011010
# 	A: 0xac848959, B: 0xffff96d0, DUTout: 0x00000000, REFout: 0x00000000
# PASS: opcode 001111, funct 011010
# 	A: 0xac848959, B: 0x07db0000, DUTout: 0x00000000, REFout: 0x00000000
# PASS: opcode 000000, funct 000111
# 	A: 0xd35277a6, B: 0xffffd3bb, DUTout: 0xffffff4e, REFout: 0xffffff4e
# PASS: opcode 001111, funct 000111
# 	A: 0xd35277a6, B: 0x56690000, DUTout: 0x00000000, REFout: 0x00000000
# O function abaixo nao existe na ula
# PASS: opcode 000000, funct 111000
# 	A: 0x8653620c, B: 0xffff9959, DUTout: 0x00000000, REFout: 0x00000000
# PASS: opcode 001111, funct 111000
# 	A: 0x8653620c, B: 0x65900000, DUTout: 0x00000000, REFout: 0x00000000
# PASS: opcode 000000, funct 000100
# 	A: 0xa8e4d851, B: 0xffffa469, DUTout: 0x48d20000, REFout: 0x48d20000
# PASS: opcode 001111, funct 000100
# 	A: 0xa8e4d851, B: 0x58d80000, DUTout: 0x00000000, REFout: 0x00000000
# O function abaixo nao existe na ula
# PASS: opcode 000000, funct 001010
# 	A: 0xcddd4d9b, B: 0xffff9ac4, DUTout: 0x00000000, REFout: 0x00000000
# PASS: opcode 001111, funct 001010
# 	A: 0xcddd4d9b, B: 0x6e860000, DUTout: 0x00000000, REFout: 0x00000000
# O function abaixo nao existe na ula
# PASS: opcode 000000, funct 111011
# 	A: 0x984d5a30, B: 0xffffd377, DUTout: 0x00000000, REFout: 0x00000000
# PASS: opcode 001111, funct 111011
# 	A: 0x984d5a30, B: 0x07070000, DUTout: 0x00000000, REFout: 0x00000000
# O function abaixo nao existe na ula
# PASS: opcode 000000, funct 100000
# 	A: 0xbb0b9776, B: 0xffffade9, DUTout: 0x00000000, REFout: 0x00000000
# PASS: opcode 001111, funct 100000
# 	A: 0xbb0b9776, B: 0x0bdb0000, DUTout: 0x00000000, REFout: 0x00000000
# O function abaixo nao existe na ula
# PASS: opcode 000000, funct 111100
# 	A: 0xc0764280, B: 0xffff9fc2, DUTout: 0x00000000, REFout: 0x00000000
# PASS: opcode 001111, funct 111100
# 	A: 0xc0764280, B: 0x64af0000, DUTout: 0x00000000, REFout: 0x00000000
# PASS: opcode 000000, funct 100001
# 	A: 0xb302da66, B: 0xffffb9af, DUTout: 0xb3029415, REFout: 0xb3029415
# PASS: opcode 001111, funct 100001
# 	A: 0xb302da66, B: 0x2c060000, DUTout: 0x00000000, REFout: 0x00000000
# PASS: opcode 000000, funct 100101
# 	A: 0xf78576ef, B: 0xffffb7e1, DUTout: 0xfffff7ef, REFout: 0xfffff7ef
# PASS: opcode 001111, funct 100101
# 	A: 0xf78576ef, B: 0x4d600000, DUTout: 0x00000000, REFout: 0x00000000
# O function abaixo nao existe na ula
# PASS: opcode 000000, funct 001011
# 	A: 0xf29c5ee5, B: 0xffffea28, DUTout: 0x00000000, REFout: 0x00000000
# PASS: opcode 001111, funct 001011
# 	A: 0xf29c5ee5, B: 0x2ee10000, DUTout: 0x00000000, REFout: 0x00000000
# O function abaixo nao existe na ula
# PASS: opcode 000000, funct 001100
# 	A: 0xbbbc5277, B: 0xffff956e, DUTout: 0x00000000, REFout: 0x00000000
# PASS: opcode 001111, funct 001100
# 	A: 0xbbbc5277, B: 0x55680000, DUTout: 0x00000000, REFout: 0x00000000
# O function abaixo nao existe na ula
# PASS: opcode 000000, funct 001101
# 	A: 0xf86271f0, B: 0xffff80aa, DUTout: 0x00000000, REFout: 0x00000000
# PASS: opcode 001111, funct 001101
# 	A: 0xf86271f0, B: 0x3c7d0000, DUTout: 0x00000000, REFout: 0x00000000
# PASS: opcode 000000, funct 100111
# 	A: 0xc72e958e, B: 0xffffdce2, DUTout: 0x00002211, REFout: 0x00002211
# PASS: opcode 001111, funct 100111
# 	A: 0xc72e958e, B: 0x31ef0000, DUTout: 0x00000000, REFout: 0x00000000
# PASS: opcode 000000, funct 100011
