labs/lab3/sim/results/aluvector.transcript
Reading /opt/altera/13.0sp1/modelsim_ase/tcl/vsim/pref.tcl 

# 10.1d

proc start {m} {vsim work.$m}
set MODULE ALUTestVectorTestbench
# ALUTestVectorTestbench
start $MODULE
# vsim work.ALUTestVectorTestbench 
# Loading work.ALUTestVectorTestbench
# Loading work.ALUdec
# Loading work.ALU
add wave $MODULE/*
add wave $MODULE/DUT1/*
add wave $MODULE/DUT2/*
run 100us
# PASS: opcode 001111, funct 110101
# 	A: 0xa378f99a, B: 0x000075e4, DUTout: 0x75e40000, REFout: 0x75e40000
# PASS: opcode 001101, funct 010101
# 	A: 0xfd17db4e, B: 0x000064c5, DUTout: 0xfd17ffcf, REFout: 0xfd17ffcf
# PASS: opcode 100000, funct 000111
# 	A: 0x728d855d, B: 0x0000321b, DUTout: 0x728db778, REFout: 0x728db778
# PASS: opcode 000000, funct 000011
# 	A: 0x00000009, B: 0xc255f393, DUTout: 0xffe12af9, REFout: 0xffe12af9
# PASS: opcode 000000, funct 100110
# 	A: 0x2387284d, B: 0x8d627070, DUTout: 0xaee5583d, REFout: 0xaee5583d
# PASS: opcode 000000, funct 101010
# 	A: 0x1fd702a8, B: 0x876e15cd, DUTout: 0x00000000, REFout: 0x00000000
# PASS: opcode 000000, funct 000010
# 	A: 0x0000000b, B: 0x4597cdd1, DUTout: 0x0008b2f9, REFout: 0x0008b2f9
# PASS: opcode 000000, funct 000000
# 	A: 0x0000000c, B: 0x83fa953f, DUTout: 0xa953f000, REFout: 0xa953f000
# PASS: opcode 000000, funct 000111
# 	A: 0x0000000a, B: 0xd6e83577, DUTout: 0xfff5ba0d, REFout: 0xfff5ba0d
# PASS: opcode 000000, funct 100011
# 	A: 0x7167f775, B: 0x6651e379, DUTout: 0x0b1613fc, REFout: 0x0b1613fc
# PASS: opcode 000000, funct 100100
# 	A: 0x8565cc4d, B: 0x2125e6fa, DUTout: 0x0125c448, REFout: 0x0125c448
# PASS: opcode 000000, funct 100001
# 	A: 0x1c215ee0, B: 0x71efe8ef, DUTout: 0x8e1147cf, REFout: 0x8e1147cf
# PASS: opcode 000000, funct 000100
# 	A: 0x00000018, B: 0x1c93e397, DUTout: 0x97000000, REFout: 0x97000000
# PASS: opcode 000000, funct 101011
# 	A: 0x08cb7177, B: 0x365a9030, DUTout: 0x00000001, REFout: 0x00000001
# PASS: opcode 000000, funct 000110
# 	A: 0x00000004, B: 0x598e5de0, DUTout: 0x0598e5de, REFout: 0x0598e5de
# PASS: opcode 000000, funct 100101
# 	A: 0x57cf0578, B: 0x3cc3766d, DUTout: 0x7fcf777d, REFout: 0x7fcf777d
# PASS: opcode 000000, funct 100111
# 	A: 0xc635d433, B: 0xbafacd36, DUTout: 0x010022c8, REFout: 0x010022c8
# PASS: opcode 001011, funct 101100
# 	A: 0x50f6cf6c, B: 0x000008a3, DUTout: 0x00000000, REFout: 0x00000000
# PASS: opcode 001010, funct 100100
# 	A: 0xb602cd42, B: 0xffffaa88, DUTout: 0x00000001, REFout: 0x00000001
# PASS: opcode 001100, funct 010001
# 	A: 0x422c4cd0, B: 0x0000e69f, DUTout: 0x00004490, REFout: 0x00004490
# PASS: opcode 101011, funct 101111
# 	A: 0x219a51df, B: 0x00007672, DUTout: 0x219ac851, REFout: 0x219ac851
# PASS: opcode 100001, funct 100110
# 	A: 0x1cec6450, B: 0xffffdc9b, DUTout: 0x1cec40eb, REFout: 0x1cec40eb
# PASS: opcode 100011, funct 000100
# 	A: 0x623b2a87, B: 0xffff90c2, DUTout: 0x623abb49, REFout: 0x623abb49
# PASS: opcode 100101, funct 101101
# 	A: 0xb6ae3dc8, B: 0xffffd651, DUTout: 0xb6ae1419, REFout: 0xb6ae1419
# PASS: opcode 101001, funct 110101
# 	A: 0x338fb65a, B: 0x00003711, DUTout: 0x338fed6b, REFout: 0x338fed6b
# PASS: opcode 101000, funct 000100
# 	A: 0x5921bf9a, B: 0xffffdfb2, DUTout: 0x59219f4c, REFout: 0x59219f4c
# PASS: opcode 001110, funct 111001
# 	A: 0x362ccea4, B: 0x00002699, DUTout: 0x362ce83d, REFout: 0x362ce83d
# PASS: opcode 100100, funct 010001
# 	A: 0x59123ff0, B: 0xffffd8b9, DUTout: 0x591218a9, REFout: 0x591218a9
# PASS: opcode 001001, funct 010011
# 	A: 0xa78eb1dc, B: 0xffff8993, DUTout: 0xa78e3b6f, REFout: 0xa78e3b6f
# PASS: opcode 001111, funct 101110
# 	A: 0xde0e5b1c, B: 0x00002c53, DUTout: 0x2c530000, REFout: 0x2c530000
# PASS: opcode 001101, funct 101101
# 	A: 0xe02a1aa4, B: 0x00006b5c, DUTout: 0xe02a7bfc, REFout: 0xe02a7bfc
# PASS: opcode 100000, funct 011000
# 	A: 0x2564ec7b, B: 0x0000504b, DUTout: 0x25653cc6, REFout: 0x25653cc6
# PASS: opcode 000000, funct 000011
# 	A: 0x0000000e, B: 0xe2b3c70b, DUTout: 0xffff8acf, REFout: 0xffff8acf
# PASS: opcode 000000, funct 100110
# 	A: 0x413f4bc5, B: 0x0024c709, DUTout: 0x411b8ccc, REFout: 0x411b8ccc
# PASS: opcode 000000, funct 101010
# 	A: 0x1f98d902, B: 0x1ad5ef23, DUTout: 0x00000000, REFout: 0x00000000
# PASS: opcode 000000, funct 000010
# 	A: 0x00000006, B: 0x6c44ef69, DUTout: 0x01b113bd, REFout: 0x01b113bd
# PASS: opcode 000000, funct 000000
# 	A: 0x00000010, B: 0xe6aabbdb, DUTout: 0xbbdb0000, REFout: 0xbbdb0000
# PASS: opcode 000000, funct 000111
# 	A: 0x0000000a, B: 0xf35063ed, DUTout: 0xfffcd418, REFout: 0xfffcd418
# PASS: opcode 000000, funct 100011
# 	A: 0x9b7ba703, B: 0x4fa5e79c, DUTout: 0x4bd5bf67, REFout: 0x4bd5bf67
# PASS: opcode 000000, funct 100100
# 	A: 0xcc2c8c80, B: 0xbaad1702, DUTout: 0x882c0400, REFout: 0x882c0400
# PASS: opcode 000000, funct 100001
# 	A: 0x5578e82c, B: 0x52883ba7, DUTout: 0xa80123d3, REFout: 0xa80123d3
# PASS: opcode 000000, funct 000100
# 	A: 0x00000006, B: 0xe615173c, DUTout: 0x8545cf00, REFout: 0x8545cf00
# PASS: opcode 000000, funct 101011
# 	A: 0xab19a444, B: 0x9669e1a4, DUTout: 0x00000000, REFout: 0x00000000
# PASS: opcode 000000, funct 000110
# 	A: 0x00000019, B: 0x5ca0a386, DUTout: 0x0000002e, REFout: 0x0000002e
# PASS: opcode 000000, funct 100101
# 	A: 0x7373f2e1, B: 0xf0906eff, DUTout: 0xf3f3feff, REFout: 0xf3f3feff
# PASS: opcode 000000, funct 100111
# 	A: 0xc3bd6e0d, B: 0xa3c0b43a, DUTout: 0x1c0201c0, REFout: 0x1c0201c0
# PASS: opcode 001011, funct 110110
# 	A: 0xb8c8e89d, B: 0x000001c4, DUTout: 0x00000000, REFout: 0x00000000
# PASS: opcode 001010, funct 010011
# 	A: 0xd6f7e7e5, B: 0xffff840c, DUTout: 0x00000001, REFout: 0x00000001
# PASS: opcode 001100, funct 000010
# 	A: 0x1c93a51e, B: 0x0000b386, DUTout: 0x0000a106, REFout: 0x0000a106
# PASS: opcode 101011, funct 001000
# 	A: 0xa4ec4b0e, B: 0xffff81c0, DUTout: 0xa4ebccce, REFout: 0xa4ebccce
# PASS: opcode 100001, funct 001010
# 	A: 0xaeeb8fb8, B: 0xffffc96a, DUTout: 0xaeeb5922, REFout: 0xaeeb5922
# PASS: opcode 100011, funct 011001
# 	A: 0xc82a688a, B: 0xffffe814, DUTout: 0xc82a509e, REFout: 0xc82a509e
# PASS: opcode 100101, funct 101011
# 	A: 0x345591b2, B: 0x00006745, DUTout: 0x3455f8f7, REFout: 0x3455f8f7
# PASS: opcode 101001, funct 110100
# 	A: 0x04563888, B: 0x00000d4b, DUTout: 0x045645d3, REFout: 0x045645d3
# PASS: opcode 101000, funct 001000
# 	A: 0x1a081c90, B: 0xfffff8dd, DUTout: 0x1a08156d, REFout: 0x1a08156d
# PASS: opcode 001110, funct 101100
# 	A: 0xefa51eda, B: 0x00004b90, DUTout: 0xefa5554a, REFout: 0xefa5554a
# PASS: opcode 100100, funct 110100
# 	A: 0x4d582241, B: 0xffffd22d, DUTout: 0x4d57f46e, REFout: 0x4d57f46e
# PASS: opcode 001001, funct 110100
# 	A: 0x53a88a40, B: 0x00000fa6, DUTout: 0x53a899e6, REFout: 0x53a899e6
# PASS: opcode 001111, funct 010100
# 	A: 0x4550ae7f, B: 0x00004c69, DUTout: 0x4c690000, REFout: 0x4c690000
# PASS: opcode 001101, funct 111011
# 	A: 0x4992a43a, B: 0x0000cd58, DUTout: 0x4992ed7a, REFout: 0x4992ed7a
# PASS: opcode 100000, funct 111111
# 	A: 0x83a166e3, B: 0xffffb6e3, DUTout: 0x83a11dc6, REFout: 0x83a11dc6
# PASS: opcode 000000, funct 000011
# 	A: 0x00000018, B: 0xd3238fcb, DUTout: 0xffffffd3, REFout: 0xffffffd3
# PASS: opcode 000000, funct 100110
# 	A: 0xc27ee4cf, B: 0xd4323422, DUTout: 0x164cd0ed, REFout: 0x164cd0ed
# PASS: opcode 000000, funct 101010
# 	A: 0x8ef240e7, B: 0x591be708, DUTout: 0x00000001, REFout: 0x00000001
# PASS: opcode 000000, funct 000010
# 	A: 0x0000001b, B: 0x0e7ef760, DUTout: 0x00000001, REFout: 0x00000001
# PASS: opcode 000000, funct 000000
# 	A: 0x00000001, B: 0xfb486f9c, DUTout: 0xf690df38, REFout: 0xf690df38
# PASS: opcode 000000, funct 000111
# 	A: 0x00000016, B: 0xd0fb0e58, DUTout: 0xffffff43, REFout: 0xffffff43
# PASS: opcode 000000, funct 100011
# 	A: 0x0e3809ac, B: 0xf4b983f5, DUTout: 0x197e85b7, REFout: 0x197e85b7
# PASS: opcode 000000, funct 100100
# 	A: 0xc13b1950, B: 0xf6a24cf3, DUTout: 0xc0220850, REFout: 0xc0220850
# PASS: opcode 000000, funct 100001
# 	A: 0x4c82187b, B: 0x4f124254, DUTout: 0x9b945acf, REFout: 0x9b945acf
# PASS: opcode 000000, funct 000100
# 	A: 0x00000004, B: 0x98b044b9, DUTout: 0x8b044b90, REFout: 0x8b044b90
# PASS: opcode 000000, funct 101011
# 	A: 0x7c91ee0a, B: 0xc8ef4a16, DUTout: 0x00000001, REFout: 0x00000001
# PASS: opcode 000000, funct 000110
# 	A: 0x00000012, B: 0x3e1b9381, DUTout: 0x00000f86, REFout: 0x00000f86
# PASS: opcode 000000, funct 100101
# 	A: 0x6e4f5b8b, B: 0x087367db, DUTout: 0x6e7f7fdb, REFout: 0x6e7f7fdb
# PASS: opcode 000000, funct 100111
# 	A: 0xe7c91182, B: 0x52fed472, DUTout: 0x08002a0d, REFout: 0x08002a0d
# PASS: opcode 001011, funct 000101
# 	A: 0x177c25c2, B: 0x00000234, DUTout: 0x00000000, REFout: 0x00000000
# PASS: opcode 001010, funct 110100
# 	A: 0x0dbc9cc5, B: 0x00004da0, DUTout: 0x00000000, REFout: 0x00000000
# PASS: opcode 001100, funct 100110
# 	A: 0xe1eb04cf, B: 0x00003b17, DUTout: 0x00000007, REFout: 0x00000007
# PASS: opcode 101011, funct 000111
# 	A: 0x8785c12f, B: 0xffff9abe, DUTout: 0x87855bed, REFout: 0x87855bed
# PASS: opcode 100001, funct 101001
# 	A: 0x919e73b7, B: 0xffff8674, DUTout: 0x919dfa2b, REFout: 0x919dfa2b
# PASS: opcode 100011, funct 010110
# 	A: 0xdf464adf, B: 0xffffe60f, DUTout: 0xdf4630ee, REFout: 0xdf4630ee
# PASS: opcode 100101, funct 011010
# 	A: 0x82f664ee, B: 0xffff8115, DUTout: 0x82f5e603, REFout: 0x82f5e603
# PASS: opcode 101001, funct 110010
# 	A: 0xea05787b, B: 0x000025c9, DUTout: 0xea059e44, REFout: 0xea059e44
# PASS: opcode 101000, funct 001011
# 	A: 0xdf6d3e1c, B: 0xffffee81, DUTout: 0xdf6d2c9d, REFout: 0xdf6d2c9d
# PASS: opcode 001110, funct 000100
# 	A: 0x1a93dc28, B: 0x0000bf19, DUTout: 0x1a936331, REFout: 0x1a936331
# PASS: opcode 100100, funct 110001
# 	A: 0xb11cbb1a, B: 0xffffa3e7, DUTout: 0xb11c5f01, REFout: 0xb11c5f01
# PASS: opcode 001001, funct 001001
# 	A: 0xb48ab609, B: 0xffff92b4, DUTout: 0xb48a48bd, REFout: 0xb48a48bd
# PASS: opcode 001111, funct 000111
# 	A: 0xd779252d, B: 0x0000623a, DUTout: 0x623a0000, REFout: 0x623a0000
# PASS: opcode 001101, funct 011100
# 	A: 0xc39e930c, B: 0x0000a1f6, DUTout: 0xc39eb3fe, REFout: 0xc39eb3fe
# PASS: opcode 100000, funct 111000
# 	A: 0xb14b8048, B: 0xffffffb7, DUTout: 0xb14b7fff, REFout: 0xb14b7fff
# PASS: opcode 000000, funct 000011
# 	A: 0x00000009, B: 0xd4b4872d, DUTout: 0xffea5a43, REFout: 0xffea5a43
# PASS: opcode 000000, funct 100110
# 	A: 0xe2157c38, B: 0xb1e07433, DUTout: 0x53f5080b, REFout: 0x53f5080b
# PASS: opcode 000000, funct 101010
# 	A: 0xca65a6fd, B: 0x2517f98a, DUTout: 0x00000001, REFout: 0x00000001
# PASS: opcode 000000, funct 000010
# 	A: 0x00000004, B: 0x8efd2dc2, DUTout: 0x08efd2dc, REFout: 0x08efd2dc
# PASS: opcode 000000, funct 000000
# 	A: 0x0000000a, B: 0x925d8be4, DUTout: 0x762f9000, REFout: 0x762f9000
# PASS: opcode 000000, funct 000111
# 	A: 0x0000001c, B: 0x9c81489f, DUTout: 0xfffffff9, REFout: 0xfffffff9
# PASS: opcode 000000, funct 100011
# 	A: 0x0d08a5ed, B: 0x75eab654, DUTout: 0x971def99, REFout: 0x971def99
# PASS: opcode 000000, funct 100100
# 	A: 0x104347f9, B: 0x8a1bd655, DUTout: 0x00034651, REFout: 0x00034651
# PASS: opcode 000000, funct 100001
# 	A: 0x298d0617, B: 0x2298a455, DUTout: 0x4c25aa6c, REFout: 0x4c25aa6c
# PASS: opcode 000000, funct 000100
# 	A: 0x00000009, B: 0x0e26286e, DUTout: 0x4c50dc00, REFout: 0x4c50dc00
# PASS: opcode 000000, funct 101011
# 	A: 0xb1e3e03a, B: 0x0281a37f, DUTout: 0x00000000, REFout: 0x00000000
# PASS: opcode 000000, funct 000110
# 	A: 0x00000002, B: 0x1e4bab2b, DUTout: 0x0792eaca, REFout: 0x0792eaca
# PASS: opcode 000000, funct 100101
# 	A: 0xc5c1d153, B: 0x6e16b6fa, DUTout: 0xefd7f7fb, REFout: 0xefd7f7fb
# PASS: opcode 000000, funct 100111
# 	A: 0x0ef4d462, B: 0xa30bb96c, DUTout: 0x50000291, REFout: 0x50000291
# PASS: opcode 001011, funct 010000
# 	A: 0xc1b15550, B: 0x000002d9, DUTout: 0x00000000, REFout: 0x00000000
# PASS: opcode 001010, funct 011101
# 	A: 0x630c8784, B: 0xffffd002, DUTout: 0x00000000, REFout: 0x00000000
# PASS: opcode 001100, funct 110110
# 	A: 0xbb9e9a3c, B: 0x0000b251, DUTout: 0x00009210, REFout: 0x00009210
# PASS: opcode 101011, funct 000111
# 	A: 0x06edcf34, B: 0x000034df, DUTout: 0x06ee0413, REFout: 0x06ee0413
# PASS: opcode 100001, funct 011010
# 	A: 0xbff4b1db, B: 0xffff9e2e, DUTout: 0xbff45009, REFout: 0xbff45009
# PASS: opcode 100011, funct 000001
# 	A: 0x9430617f, B: 0x000061ec, DUTout: 0x9430c36b, REFout: 0x9430c36b
# PASS: opcode 100101, funct 111100
# 	A: 0x5b1b0a19, B: 0x00003129, DUTout: 0x5b1b3b42, REFout: 0x5b1b3b42
# PASS: opcode 101001, funct 011110
# 	A: 0x2ed7fdcb, B: 0xffff9139, DUTout: 0x2ed78f04, REFout: 0x2ed78f04
# PASS: opcode 101000, funct 010101
# 	A: 0xcf1bf07c, B: 0xffff95e6, DUTout: 0xcf1b8662, REFout: 0xcf1b8662
# PASS: opcode 001110, funct 110011
# 	A: 0xff5a7fc8, B: 0x000099c6, DUTout: 0xff5ae60e, REFout: 0xff5ae60e
# PASS: opcode 100100, funct 011111
# 	A: 0xdddf11d0, B: 0xffffba8d, DUTout: 0xdddecc5d, REFout: 0xdddecc5d
# PASS: opcode 001001, funct 100111
# 	A: 0x9cc2da64, B: 0x0000361b, DUTout: 0x9cc3107f, REFout: 0x9cc3107f
# PASS: opcode 001111, funct 011101
# 	A: 0xc9c8dc00, B: 0x000016ac, DUTout: 0x16ac0000, REFout: 0x16ac0000
# PASS: opcode 001101, funct 001110
# 	A: 0xaa1d7aeb, B: 0x000095ce, DUTout: 0xaa1dffef, REFout: 0xaa1dffef
# PASS: opcode 100000, funct 100011
# 	A: 0x4d045e13, B: 0x00001d5a, DUTout: 0x4d047b6d, REFout: 0x4d047b6d
# PASS: opcode 000000, funct 000011
# 	A: 0x0000000c, B: 0xa1a793ca, DUTout: 0xfffa1a79, REFout: 0xfffa1a79
# PASS: opcode 000000, funct 100110
# 	A: 0x8e62c80c, B: 0xe5023acb, DUTout: 0x6b60f2c7, REFout: 0x6b60f2c7
# PASS: opcode 000000, funct 101010
# 	A: 0x89a940f9, B: 0x02c36e17, DUTout: 0x00000001, REFout: 0x00000001
# PASS: opcode 000000, funct 000010
# 	A: 0x00000007, B: 0xb4c1664b, DUTout: 0x016982cc, REFout: 0x016982cc
# PASS: opcode 000000, funct 000000
# 	A: 0x00000003, B: 0x795cfd51, DUTout: 0xcae7ea88, REFout: 0xcae7ea88
# PASS: opcode 000000, funct 000111
# 	A: 0x00000019, B: 0x9d2fd2ec, DUTout: 0xffffffce, REFout: 0xffffffce
# PASS: opcode 000000, funct 100011
# 	A: 0xf847e59c, B: 0x2694b39e, DUTout: 0xd1b331fe, REFout: 0xd1b331fe
# PASS: opcode 000000, funct 100100
# 	A: 0x000b0dfb, B: 0x2632f1dd, DUTout: 0x000201d9, REFout: 0x000201d9
# PASS: opcode 000000, funct 100001
# 	A: 0x40039ca9, B: 0x9c9d9c5d, DUTout: 0xdca13906, REFout: 0xdca13906
# PASS: opcode 000000, funct 000100
# 	A: 0x0000000e, B: 0xadf53d5a, DUTout: 0x4f568000, REFout: 0x4f568000
# PASS: opcode 000000, funct 101011
# 	A: 0xebc42642, B: 0x173898f0, DUTout: 0x00000000, REFout: 0x00000000
# PASS: opcode 000000, funct 000110
# 	A: 0x00000019, B: 0x3294399a, DUTout: 0x00000019, REFout: 0x00000019
# PASS: opcode 000000, funct 100101
# 	A: 0x838567e4, B: 0xcd21d383, DUTout: 0xcfa5f7e7, REFout: 0xcfa5f7e7
# PASS: opcode 000000, funct 100111
# 	A: 0xc455bfa2, B: 0x57c2dfd3, DUTout: 0x2828000c, REFout: 0x2828000c
# PASS: opcode 001011, funct 110011
# 	A: 0x74dd9736, B: 0x00000e3a, DUTout: 0x00000000, REFout: 0x00000000
# PASS: opcode 001010, funct 100000
# 	A: 0x2a841e4e, B: 0xffff9d96, DUTout: 0x00000000, REFout: 0x00000000
# PASS: opcode 001100, funct 011111
# 	A: 0xa51cb234, B: 0x0000f552, DUTout: 0x0000b010, REFout: 0x0000b010
# PASS: opcode 101011, funct 001111
# 	A: 0x12a87ae1, B: 0xffffdb1e, DUTout: 0x12a855ff, REFout: 0x12a855ff
# PASS: opcode 100001, funct 000001
# 	A: 0x5296e78d, B: 0xffffd0a5, DUTout: 0x5296b832, REFout: 0x5296b832
# PASS: opcode 100011, funct 110100
# 	A: 0x41792a81, B: 0x00007dca, DUTout: 0x4179a84b, REFout: 0x4179a84b
# PASS: opcode 100101, funct 110111
# 	A: 0x47a5c9e8, B: 0x00000323, DUTout: 0x47a5cd0b, REFout: 0x47a5cd0b
# PASS: opcode 101001, funct 010101
# 	A: 0x08c6c324, B: 0xfffff05f, DUTout: 0x08c6b383, REFout: 0x08c6b383
# PASS: opcode 101000, funct 001100
# 	A: 0x2a8b5c33, B: 0xfffffcb5, DUTout: 0x2a8b58e8, REFout: 0x2a8b58e8
# PASS: opcode 001110, funct 010010
# 	A: 0x2d093c5f, B: 0x0000da7d, DUTout: 0x2d09e622, REFout: 0x2d09e622
# PASS: opcode 100100, funct 101100
# 	A: 0x427ad04a, B: 0xffff974c, DUTout: 0x427a6796, REFout: 0x427a6796
# PASS: opcode 001001, funct 111011
# 	A: 0x7323add8, B: 0x00006dc3, DUTout: 0x73241b9b, REFout: 0x73241b9b
# PASS: opcode 001111, funct 111001
# 	A: 0x7dc110e2, B: 0x00007c83, DUTout: 0x7c830000, REFout: 0x7c830000
# PASS: opcode 001101, funct 001111
# 	A: 0xc6ce2918, B: 0x0000a55f, DUTout: 0xc6cead5f, REFout: 0xc6cead5f
# PASS: opcode 100000, funct 111101
# 	A: 0x36b28648, B: 0xffffc980, DUTout: 0x36b24fc8, REFout: 0x36b24fc8
# PASS: opcode 000000, funct 000011
# 	A: 0x00000013, B: 0x8bad0d71, DUTout: 0xfffff175, REFout: 0xfffff175
# PASS: opcode 000000, funct 100110
# 	A: 0xf0043e4a, B: 0xde0030b7, DUTout: 0x2e040efd, REFout: 0x2e040efd
# PASS: opcode 000000, funct 101010
# 	A: 0x528084d6, B: 0x230d6dad, DUTout: 0x00000000, REFout: 0x00000000
# PASS: opcode 000000, funct 000010
# 	A: 0x0000001c, B: 0x6c6dc6a8, DUTout: 0x00000006, REFout: 0x00000006
# PASS: opcode 000000, funct 000000
# 	A: 0x00000012, B: 0x779aa8fb, DUTout: 0xa3ec0000, REFout: 0xa3ec0000
# PASS: opcode 000000, funct 000111
# 	A: 0x00000003, B: 0x8f667686, DUTout: 0xf1ecced0, REFout: 0xf1ecced0
# PASS: opcode 000000, funct 100011
# 	A: 0x7a1a32dc, B: 0xae3e9b87, DUTout: 0xcbdb9755, REFout: 0xcbdb9755
# PASS: opcode 000000, funct 100100
# 	A: 0x61c85db1, B: 0x775db1b1, DUTout: 0x614811b1, REFout: 0x614811b1
# PASS: opcode 000000, funct 100001
# 	A: 0x6e739d1c, B: 0x296b186a, DUTout: 0x97deb586, REFout: 0x97deb586
# PASS: opcode 000000, funct 000100
# 	A: 0x00000000, B: 0xaf95da7c, DUTout: 0xaf95da7c, REFout: 0xaf95da7c
# PASS: opcode 000000, funct 101011
# 	A: 0x844582ea, B: 0xd7234790, DUTout: 0x00000001, REFout: 0x00000001
# PASS: opcode 000000, funct 000110
# 	A: 0x00000000, B: 0x37ccc9bf, DUTout: 0x37ccc9bf, REFout: 0x37ccc9bf
# PASS: opcode 000000, funct 100101
# 	A: 0x14094c5d, B: 0x747318db, DUTout: 0x747b5cdf, REFout: 0x747b5cdf
# PASS: opcode 000000, funct 100111
# 	A: 0xe313a155, B: 0x7e47b631, DUTout: 0x00a8488a, REFout: 0x00a8488a
# PASS: opcode 001011, funct 000001
# 	A: 0x60546cd2, B: 0x00000c19, DUTout: 0x00000000, REFout: 0x00000000
# PASS: opcode 001010, funct 010000
# 	A: 0x21711890, B: 0xffff8a0f, DUTout: 0x00000000, REFout: 0x00000000
# PASS: opcode 001100, funct 011001
# 	A: 0xfc5b20c4, B: 0x0000644c, DUTout: 0x00002044, REFout: 0x00002044
# PASS: opcode 101011, funct 011110
# 	A: 0x4884d004, B: 0xffff9130, DUTout: 0x48846134, REFout: 0x48846134
# PASS: opcode 100001, funct 101011
# 	A: 0x52e3d058, B: 0xffff880f, DUTout: 0x52e35867, REFout: 0x52e35867
# PASS: opcode 100011, funct 110010
# 	A: 0x84512b70, B: 0xfffff232, DUTout: 0x84511da2, REFout: 0x84511da2
# PASS: opcode 100101, funct 110011
# 	A: 0x10835e61, B: 0xffffc9b8, DUTout: 0x10832819, REFout: 0x10832819
# PASS: opcode 101001, funct 001110
# 	A: 0x1d018e9c, B: 0xffffca2f, DUTout: 0x1d0158cb, REFout: 0x1d0158cb
# PASS: opcode 101000, funct 010010
# 	A: 0x8c16eaa5, B: 0xffff81b8, DUTout: 0x8c166c5d, REFout: 0x8c166c5d
# PASS: opcode 001110, funct 100001
# 	A: 0xa9ae2de3, B: 0x0000b8f0, DUTout: 0xa9ae9513, REFout: 0xa9ae9513
# PASS: opcode 100100, funct 000001
# 	A: 0x9bfe3fcc, B: 0x00002e2b, DUTout: 0x9bfe6df7, REFout: 0x9bfe6df7
# PASS: opcode 001001, funct 101100
# 	A: 0xedc8bb55, B: 0xffffa8e5, DUTout: 0xedc8643a, REFout: 0xedc8643a
# PASS: opcode 001111, funct 000101
# 	A: 0xf4909421, B: 0x0000c41c, DUTout: 0xc41c0000, REFout: 0xc41c0000
# PASS: opcode 001101, funct 011100
# 	A: 0xef6637f2, B: 0x000091c4, DUTout: 0xef66b7f6, REFout: 0xef66b7f6
# PASS: opcode 100000, funct 010100
# 	A: 0x67517327, B: 0x000001fc, DUTout: 0x67517523, REFout: 0x67517523
# PASS: opcode 000000, funct 000011
# 	A: 0x00000006, B: 0xbc324ce0, DUTout: 0xfef0c933, REFout: 0xfef0c933
# PASS: opcode 000000, funct 100110
# 	A: 0xf920d718, B: 0x15ca6ada, DUTout: 0xeceabdc2, REFout: 0xeceabdc2
# PASS: opcode 000000, funct 101010
# 	A: 0x28a8ac23, B: 0x80ba44c1, DUTout: 0x00000000, REFout: 0x00000000
# PASS: opcode 000000, funct 000010
# 	A: 0x00000000, B: 0x42ce96e2, DUTout: 0x42ce96e2, REFout: 0x42ce96e2
# PASS: opcode 000000, funct 000000
# 	A: 0x00000002, B: 0x36f5f10e, DUTout: 0xdbd7c438, REFout: 0xdbd7c438
# PASS: opcode 000000, funct 000111
# 	A: 0x00000001, B: 0xc606e444, DUTout: 0xe3037222, REFout: 0xe3037222
# PASS: opcode 000000, funct 100011
# 	A: 0x1e7bff5f, B: 0xa85c6787, DUTout: 0x761f97d8, REFout: 0x761f97d8
# PASS: opcode 000000, funct 100100
# 	A: 0x097ee054, B: 0x761b247f, DUTout: 0x001a2054, REFout: 0x001a2054
# PASS: opcode 000000, funct 100001
# 	A: 0x6beeb3eb, B: 0xfe127a4b, DUTout: 0x6a012e36, REFout: 0x6a012e36
# PASS: opcode 000000, funct 000100
# 	A: 0x00000016, B: 0x4260aeb3, DUTout: 0xacc00000, REFout: 0xacc00000
# PASS: opcode 000000, funct 101011
# 	A: 0x6554bf7c, B: 0x872757a3, DUTout: 0x00000001, REFout: 0x00000001
# PASS: opcode 000000, funct 000110
# 	A: 0x00000018, B: 0x2a12dec9, DUTout: 0x0000002a, REFout: 0x0000002a
# PASS: opcode 000000, funct 100101
# 	A: 0x470d2423, B: 0xd41d33a5, DUTout: 0xd71d37a7, REFout: 0xd71d37a7
# PASS: opcode 000000, funct 100111
# 	A: 0xe83775bd, B: 0xdb68e9dd, DUTout: 0x04800202, REFout: 0x04800202
# PASS: opcode 001011, funct 011011
# 	A: 0x5be170bb, B: 0x000009f3, DUTout: 0x00000000, REFout: 0x00000000
# PASS: opcode 001010, funct 101000
# 	A: 0x0be12e62, B: 0xffffdb41, DUTout: 0x00000000, REFout: 0x00000000
# PASS: opcode 001100, funct 101100
# 	A: 0x23840999, B: 0x0000d440, DUTout: 0x00000000, REFout: 0x00000000
# PASS: opcode 101011, funct 110100
# 	A: 0xe3ef43b1, B: 0xffffee47, DUTout: 0xe3ef31f8, REFout: 0xe3ef31f8
# PASS: opcode 100001, funct 010011
# 	A: 0x541e65e7, B: 0xffffa005, DUTout: 0x541e05ec, REFout: 0x541e05ec
# PASS: opcode 100011, funct 001001
# 	A: 0x0010f50b, B: 0xffffbd97, DUTout: 0x0010b2a2, REFout: 0x0010b2a2
# PASS: opcode 100101, funct 111011
# 	A: 0x37f45f14, B: 0x00001814, DUTout: 0x37f47728, REFout: 0x37f47728
# PASS: opcode 101001, funct 000000
# 	A: 0x7e635003, B: 0xfffff287, DUTout: 0x7e63428a, REFout: 0x7e63428a
# PASS: opcode 101000, funct 001001
# 	A: 0x3d85b6c0, B: 0xffffc7b4, DUTout: 0x3d857e74, REFout: 0x3d857e74
# PASS: opcode 001110, funct 110010
# 	A: 0x2dd5585e, B: 0x00007232, DUTout: 0x2dd52a6c, REFout: 0x2dd52a6c
# PASS: opcode 100100, funct 000111
# 	A: 0x3e9d2704, B: 0xffffa8ec, DUTout: 0x3e9ccff0, REFout: 0x3e9ccff0
# PASS: opcode 001001, funct 011011
# 	A: 0x9fa15b86, B: 0xffffaf99, DUTout: 0x9fa10b1f, REFout: 0x9fa10b1f
# PASS: opcode 001111, funct 011101
# 	A: 0x70b14f19, B: 0x0000506a, DUTout: 0x506a0000, REFout: 0x506a0000
# PASS: opcode 001101, funct 010000
# 	A: 0xcdad0e75, B: 0x00004b8c, DUTout: 0xcdad4ffd, REFout: 0xcdad4ffd
# PASS: opcode 100000, funct 000100
# 	A: 0x6398be06, B: 0x00006ec3, DUTout: 0x63992cc9, REFout: 0x63992cc9
# PASS: opcode 000000, funct 000011
# 	A: 0x00000009, B: 0xc4ef7299, DUTout: 0xffe277b9, REFout: 0xffe277b9
# PASS: opcode 000000, funct 100110
# 	A: 0x411bf3c6, B: 0x4d3b96e3, DUTout: 0x0c206525, REFout: 0x0c206525
# PASS: opcode 000000, funct 101010
# 	A: 0x02158bba, B: 0x4da3ddcf, DUTout: 0x00000001, REFout: 0x00000001
# PASS: opcode 000000, funct 000010
# 	A: 0x0000001a, B: 0xb34e79dc, DUTout: 0x0000002c, REFout: 0x0000002c
# PASS: opcode 000000, funct 000000
# 	A: 0x00000002, B: 0xf75a6310, DUTout: 0xdd698c40, REFout: 0xdd698c40
# PASS: opcode 000000, funct 000111
# 	A: 0x0000001f, B: 0xa23c5a74, DUTout: 0xffffffff, REFout: 0xffffffff
