labs/lab4/sim/syn/results/aluvector.transcript
Reading /opt/altera/13.0sp1/modelsim_ase/tcl/vsim/pref.tcl 

# 10.1d

proc start {m} {vsim -L cycloneive_ver -sdftyp /DUT2=../../../syn/src/ALU_v.sdo work.$m}
set MODULE ALUTestVectorTestbench
# ALUTestVectorTestbench
start $MODULE
# vsim -L cycloneive_ver -sdftyp /DUT2=../../../syn/src/ALU_v.sdo work.ALUTestVectorTestbench 
# Loading work.ALUTestVectorTestbench
# Loading work.ALUdec
# Loading work.ALU
# Loading cycloneive_ver.cycloneive_lcell_comb
# Loading cycloneive_ver.cycloneive_io_obuf
# Loading cycloneive_ver.cycloneive_io_ibuf
# Loading instances from ../../../syn/src/ALU_v.sdo
# Loading instances from ALU_v.sdo
# Loading timing data from ../../../syn/src/ALU_v.sdo
# Loading timing data from ALU_v.sdo
# ** Note: (vsim-3587) SDF Backannotation Successfully Completed.
#    Time: 0 ps  Iteration: 0  Instance: /ALUTestVectorTestbench File: ../../../sim/tb/ALUTestVectorTestbench.v
add wave $MODULE/*
add wave $MODULE/DUT1/*
add wave $MODULE/DUT2/*
run 100us
# 001111110101101000110111100011111001100110100000000000000000011101011110010001110101111001000000000000000000
# PASS: opcode 001111, funct 110101
# 	A: 0xa378f99a, B: 0x000075e4, DUTout: 0x75e40000, REFout: 0x75e40000
# 001101010101111111010001011111011011010011100000000000000000011001001100010111111101000101111111111111001111
# PASS: opcode 001101, funct 010101
# 	A: 0xfd17db4e, B: 0x000064c5, DUTout: 0xfd17ffcf, REFout: 0xfd17ffcf
# 100000000111011100101000110110000101010111010000000000000000001100100001101101110010100011011011011101111000
# PASS: opcode 100000, funct 000111
# 	A: 0x728d855d, B: 0x0000321b, DUTout: 0x728db778, REFout: 0x728db778
# 000000000011000000000000000000000000000010011100001001010101111100111001001111111111111000010010101011111001
# PASS: opcode 000000, funct 000011
# 	A: 0x00000009, B: 0xc255f393, DUTout: 0xffe12af9, REFout: 0xffe12af9
# 000000100110001000111000011100101000010011011000110101100010011100000111000010101110111001010101100000111101
# PASS: opcode 000000, funct 100110
# 	A: 0x2387284d, B: 0x8d627070, DUTout: 0xaee5583d, REFout: 0xaee5583d
# 000000101010000111111101011100000010101010001000011101101110000101011100110100000000000000000000000000000000
# PASS: opcode 000000, funct 101010
# 	A: 0x1fd702a8, B: 0x876e15cd, DUTout: 0x00000000, REFout: 0x00000000
# 000000000010000000000000000000000000000010110100010110010111110011011101000100000000000010001011001011111001
# PASS: opcode 000000, funct 000010
# 	A: 0x0000000b, B: 0x4597cdd1, DUTout: 0x0008b2f9, REFout: 0x0008b2f9
# 000000000000000000000000000000000000000011001000001111111010100101010011111110101001010100111111000000000000
# FAIL: Incorrect result for opcode 000000, funct: 000000:
# 	A: 0x0000000c, B: 0x83fa953f, DUTout: 0xa95ba200, REFout: 0xa953f000
# 000000000111000000000000000000000000000010101101011011101000001101010111011111111111111101011011101000001101
# FAIL: Incorrect result for opcode 000000, funct: 000111:
# 	A: 0x0000000a, B: 0xd6e83577, DUTout: 0xfff7ba0d, REFout: 0xfff5ba0d
# 000000100011011100010110011111110111011101010110011001010001111000110111100100001011000101100001001111111100
# PASS: opcode 000000, funct 100011
# 	A: 0x7167f775, B: 0x6651e379, DUTout: 0x0b1613fc, REFout: 0x0b1613fc
# 000000100100100001010110010111001100010011010010000100100101111001101111101000000001001001011100010001001000
# PASS: opcode 000000, funct 100100
# 	A: 0x8565cc4d, B: 0x2125e6fa, DUTout: 0x0125c448, REFout: 0x0125c448
# 000000100001000111000010000101011110111000000111000111101111111010001110111110001110000100010100011111001111
# FAIL: Incorrect result for opcode 000000, funct: 100001:
# 	A: 0x1c215ee0, B: 0x71efe8ef, DUTout: 0x8e1143cf, REFout: 0x8e1147cf
# 000000000100000000000000000000000000000110000001110010010011111000111001011110010111000000000000000000000000
# FAIL: Incorrect result for opcode 000000, funct: 000100:
# 	A: 0x00000018, B: 0x1c93e397, DUTout: 0xf7000600, REFout: 0x97000000
# 000000101011000010001100101101110001011101110011011001011010100100000011000000000000000000000000000000000001
# PASS: opcode 000000, funct 101011
# 	A: 0x08cb7177, B: 0x365a9030, DUTout: 0x00000001, REFout: 0x00000001
# 000000000110000000000000000000000000000001000101100110001110010111011110000000000101100110001110010111011110
# FAIL: Incorrect result for opcode 000000, funct: 000110:
# 	A: 0x00000004, B: 0x598e5de0, DUTout: 0x0508e5de, REFout: 0x0598e5de
# 000000100101010101111100111100000101011110000011110011000011011101100110110101111111110011110111011101111101
# PASS: opcode 000000, funct 100101
# 	A: 0x57cf0578, B: 0x3cc3766d, DUTout: 0x7fcf777d, REFout: 0x7fcf777d
# 000000100111110001100011010111010100001100111011101011111010110011010011011000000001000000000010001011001000
# PASS: opcode 000000, funct 100111
# 	A: 0xc635d433, B: 0xbafacd36, DUTout: 0x010022c8, REFout: 0x010022c8
# 001011101100010100001111011011001111011011000000000000000000000010001010001100000000000000000000000000000000
# FAIL: Incorrect result for opcode 001011, funct: 101100:
# 	A: 0x50f6cf6c, B: 0x000008a3, DUTout: 0x00000200, REFout: 0x00000000
# 001010100100101101100000001011001101010000101111111111111111101010101000100000000000000000000000000000000001
# PASS: opcode 001010, funct 100100
# 	A: 0xb602cd42, B: 0xffffaa88, DUTout: 0x00000001, REFout: 0x00000001
# 001100010001010000100010110001001100110100000000000000000000111001101001111100000000000000000100010010010000
# PASS: opcode 001100, funct 010001
# 	A: 0x422c4cd0, B: 0x0000e69f, DUTout: 0x00004490, REFout: 0x00004490
# 101011101111001000011001101001010001110111110000000000000000011101100111001000100001100110101100100001010001
# PASS: opcode 101011, funct 101111
# 	A: 0x219a51df, B: 0x00007672, DUTout: 0x219ac851, REFout: 0x219ac851
# 100001100110000111001110110001100100010100001111111111111111110111001001101100011100111011000100000011101011
# PASS: opcode 100001, funct 100110
# 	A: 0x1cec6450, B: 0xffffdc9b, DUTout: 0x1cec40eb, REFout: 0x1cec40eb
# 100011000100011000100011101100101010100001111111111111111111100100001100001001100010001110101011101101001001
# FAIL: Incorrect result for opcode 100011, funct: 000100:
# 	A: 0x623b2a87, B: 0xffff90c2, DUTout: 0x623a8149, REFout: 0x623abb49
# 100101101101101101101010111000111101110010001111111111111111110101100101000110110110101011100001010000011001
# FAIL: Incorrect result for opcode 100101, funct: 101101:
# 	A: 0xb6ae3dc8, B: 0xffffd651, DUTout: 0xb6ae1219, REFout: 0xb6ae1419
# 101001110101001100111000111110110110010110100000000000000000001101110001000100110011100011111110110101101011
# FAIL: Incorrect result for opcode 101001, funct: 110101:
# 	A: 0x338fb65a, B: 0x00003711, DUTout: 0x378fed6b, REFout: 0x338fed6b
# 101000000100010110010010000110111111100110101111111111111111110111111011001001011001001000011001111101001100
# FAIL: Incorrect result for opcode 101000, funct: 000100:
# 	A: 0x5921bf9a, B: 0xffffdfb2, DUTout: 0x59219d4c, REFout: 0x59219f4c
# 001110111001001101100010110011001110101001000000000000000000001001101001100100110110001011001110100000111101
# PASS: opcode 001110, funct 111001
# 	A: 0x362ccea4, B: 0x00002699, DUTout: 0x362ce83d, REFout: 0x362ce83d
# 100100010001010110010001001000111111111100001111111111111111110110001011100101011001000100100001100010101001
# PASS: opcode 100100, funct 010001
# 	A: 0x59123ff0, B: 0xffffd8b9, DUTout: 0x591218a9, REFout: 0x591218a9
# 001001010011101001111000111010110001110111001111111111111111100010011001001110100111100011100011101101101111
# FAIL: Incorrect result for opcode 001001, funct: 010011:
# 	A: 0xa78eb1dc, B: 0xffff8993, DUTout: 0xa78e396f, REFout: 0xa78e3b6f
# 001111101110110111100000111001011011000111000000000000000000001011000101001100101100010100110000000000000000
# PASS: opcode 001111, funct 101110
# 	A: 0xde0e5b1c, B: 0x00002c53, DUTout: 0x2c530000, REFout: 0x2c530000
# 001101101101111000000010101000011010101001000000000000000000011010110101110011100000001010100111101111111100
# PASS: opcode 001101, funct 101101
# 	A: 0xe02a1aa4, B: 0x00006b5c, DUTout: 0xe02a7bfc, REFout: 0xe02a7bfc
# 100000011000001001010110010011101100011110110000000000000000010100000100101100100101011001010011110011000110
# FAIL: Incorrect result for opcode 100000, funct: 011000:
# 	A: 0x2564ec7b, B: 0x0000504b, DUTout: 0x25652ec6, REFout: 0x25653cc6
# 000000000011000000000000000000000000000011101110001010110011110001110000101111111111111111111000101011001111
# FAIL: Incorrect result for opcode 000000, funct: 000011:
# 	A: 0x0000000e, B: 0xe2b3c70b, DUTout: 0xffff88cf, REFout: 0xffff8acf
# 000000100110010000010011111101001011110001010000000000100100110001110000100101000001000110111000110011001100
# PASS: opcode 000000, funct 100110
# 	A: 0x413f4bc5, B: 0x0024c709, DUTout: 0x411b8ccc, REFout: 0x411b8ccc
# 000000101010000111111001100011011001000000100001101011010101111011110010001100000000000000000000000000000000
# PASS: opcode 000000, funct 101010
# 	A: 0x1f98d902, B: 0x1ad5ef23, DUTout: 0x00000000, REFout: 0x00000000
# 000000000010000000000000000000000000000001100110110001000100111011110110100100000001101100010001001110111101
# PASS: opcode 000000, funct 000010
# 	A: 0x00000006, B: 0x6c44ef69, DUTout: 0x01b113bd, REFout: 0x01b113bd
# 000000000000000000000000000000000000000100001110011010101010101110111101101110111011110110110000000000000000
# FAIL: Incorrect result for opcode 000000, funct: 000000:
# 	A: 0x00000010, B: 0xe6aabbdb, DUTout: 0xbbbb0000, REFout: 0xbbdb0000
# 000000000111000000000000000000000000000010101111001101010000011000111110110111111111111111001101010000011000
# FAIL: Incorrect result for opcode 000000, funct: 000111:
# 	A: 0x0000000a, B: 0xf35063ed, DUTout: 0xfffed418, REFout: 0xfffcd418
# 000000100011100110110111101110100111000000110100111110100101111001111001110001001011110101011011111101100111
# PASS: opcode 000000, funct 100011
# 	A: 0x9b7ba703, B: 0x4fa5e79c, DUTout: 0x4bd5bf67, REFout: 0x4bd5bf67
# 000000100100110011000010110010001100100000001011101010101101000101110000001010001000001011000000010000000000
# PASS: opcode 000000, funct 100100
# 	A: 0xcc2c8c80, B: 0xbaad1702, DUTout: 0x882c0400, REFout: 0x882c0400
# 000000100001010101010111100011101000001011000101001010001000001110111010011110101000000000010010001111010011
# FAIL: Incorrect result for opcode 000000, funct: 100001:
# 	A: 0x5578e82c, B: 0x52883ba7, DUTout: 0xa80127d3, REFout: 0xa80123d3
# 000000000100000000000000000000000000000001101110011000010101000101110011110010000101010001011100111100000000
# FAIL: Incorrect result for opcode 000000, funct: 000100:
# 	A: 0x00000006, B: 0xe615173c, DUTout: 0xa181bb00, REFout: 0x8545cf00
# 000000101011101010110001100110100100010001001001011001101001111000011010010000000000000000000000000000000000
# PASS: opcode 000000, funct 101011
# 	A: 0xab19a444, B: 0x9669e1a4, DUTout: 0x00000000, REFout: 0x00000000
# 000000000110000000000000000000000000000110010101110010100000101000111000011000000000000000000000000000101110
# FAIL: Incorrect result for opcode 000000, funct: 000110:
# 	A: 0x00000019, B: 0x5ca0a386, DUTout: 0x0000003e, REFout: 0x0000002e
# 000000100101011100110111001111110010111000011111000010010000011011101111111111110011111100111111111011111111
# PASS: opcode 000000, funct 100101
# 	A: 0x7373f2e1, B: 0xf0906eff, DUTout: 0xf3f3feff, REFout: 0xf3f3feff
# 000000100111110000111011110101101110000011011010001111000000101101000011101000011100000000100000000111000000
# FAIL: Incorrect result for opcode 000000, funct: 100111:
# 	A: 0xc3bd6e0d, B: 0xa3c0b43a, DUTout: 0x180207c0, REFout: 0x1c0201c0
# 001011110110101110001100100011101000100111010000000000000000000000011100010000000000000000000000000000000000
# PASS: opcode 001011, funct 110110
# 	A: 0xb8c8e89d, B: 0x000001c4, DUTout: 0x00000000, REFout: 0x00000000
# 001010010011110101101111011111100111111001011111111111111111100001000000110000000000000000000000000000000001
# PASS: opcode 001010, funct 010011
# 	A: 0xd6f7e7e5, B: 0xffff840c, DUTout: 0x00000001, REFout: 0x00000001
# 001100000010000111001001001110100101000111100000000000000000101100111000011000000000000000001010000100000110
# PASS: opcode 001100, funct 000010
# 	A: 0x1c93a51e, B: 0x0000b386, DUTout: 0x0000a106, REFout: 0x0000a106
# 101011001000101001001110110001001011000011101111111111111111100000011100000010100100111010111100110011001110
# FAIL: Incorrect result for opcode 101011, funct: 001000:
# 	A: 0xa4ec4b0e, B: 0xffff81c0, DUTout: 0x94ebccce, REFout: 0xa4ebccce
# 100001001010101011101110101110001111101110001111111111111111110010010110101010101110111010110101100100100010
# PASS: opcode 100001, funct 001010
# 	A: 0xaeeb8fb8, B: 0xffffc96a, DUTout: 0xaeeb5922, REFout: 0xaeeb5922
# 100011011001110010000010101001101000100010101111111111111111111010000001010011001000001010100101000010011110
# PASS: opcode 100011, funct 011001
# 	A: 0xc82a688a, B: 0xffffe814, DUTout: 0xc82a509e, REFout: 0xc82a509e
# 100101101011001101000101010110010001101100100000000000000000011001110100010100110100010101011111100011110111
# FAIL: Incorrect result for opcode 100101, funct: 101011:
# 	A: 0x345591b2, B: 0x00006745, DUTout: 0x3455d8f7, REFout: 0x3455f8f7
# 101001110100000001000101011000111000100010000000000000000000000011010100101100000100010101100100010111010011
# FAIL: Incorrect result for opcode 101001, funct: 110100:
# 	A: 0x04563888, B: 0x00000d4b, DUTout: 0x045651d3, REFout: 0x045645d3
# 101000001000000110100000100000011100100100001111111111111111111110001101110100011010000010000001010101101101
# PASS: opcode 101000, funct 001000
# 	A: 0x1a081c90, B: 0xfffff8dd, DUTout: 0x1a08156d, REFout: 0x1a08156d
# 001110101100111011111010010100011110110110100000000000000000010010111001000011101111101001010101010101001010
# PASS: opcode 001110, funct 101100
# 	A: 0xefa51eda, B: 0x00004b90, DUTout: 0xefa5554a, REFout: 0xefa5554a
# 100100110100010011010101100000100010010000011111111111111111110100100010110101001101010101111111010001101110
# FAIL: Incorrect result for opcode 100100, funct: 110100:
# 	A: 0x4d582241, B: 0xffffd22d, DUTout: 0x4d57f06e, REFout: 0x4d57f46e
# 001001110100010100111010100010001010010000000000000000000000000011111010011001010011101010001001100111100110
# FAIL: Incorrect result for opcode 001001, funct: 110100:
# 	A: 0x53a88a40, B: 0x00000fa6, DUTout: 0x57a89de6, REFout: 0x53a899e6
# 001111010100010001010101000010101110011111110000000000000000010011000110100101001100011010010000000000000000
# PASS: opcode 001111, funct 010100
# 	A: 0x4550ae7f, B: 0x00004c69, DUTout: 0x4c690000, REFout: 0x4c690000
# 001101111011010010011001001010100100001110100000000000000000110011010101100001001001100100101110110101111010
# PASS: opcode 001101, funct 111011
# 	A: 0x4992a43a, B: 0x0000cd58, DUTout: 0x4992ed7a, REFout: 0x4992ed7a
# 100000111111100000111010000101100110111000111111111111111111101101101110001110000011101000010001110111000110
# PASS: opcode 100000, funct 111111
# 	A: 0x83a166e3, B: 0xffffb6e3, DUTout: 0x83a11dc6, REFout: 0x83a11dc6
# 000000000011000000000000000000000000000110001101001100100011100011111100101111111111111111111111111111010011
# FAIL: Incorrect result for opcode 000000, funct: 000011:
# 	A: 0x00000018, B: 0xd3238fcb, DUTout: 0xfffffdd3, REFout: 0xffffffd3
# 000000100110110000100111111011100100110011111101010000110010001101000010001000010110010011001101000011101101
# PASS: opcode 000000, funct 100110
# 	A: 0xc27ee4cf, B: 0xd4323422, DUTout: 0x164cd0ed, REFout: 0x164cd0ed
# 000000101010100011101111001001000000111001110101100100011011111001110000100000000000000000000000000000000001
# PASS: opcode 000000, funct 101010
# 	A: 0x8ef240e7, B: 0x591be708, DUTout: 0x00000001, REFout: 0x00000001
# 000000000010000000000000000000000000000110110000111001111110111101110110000000000000000000000000000000000001
# PASS: opcode 000000, funct 000010
# 	A: 0x0000001b, B: 0x0e7ef760, DUTout: 0x00000001, REFout: 0x00000001
# 000000000000000000000000000000000000000000011111101101001000011011111001110011110110100100001101111100111000
# FAIL: Incorrect result for opcode 000000, funct: 000000:
# 	A: 0x00000001, B: 0xfb486f9c, DUTout: 0xf201e808, REFout: 0xf690df38
# 000000000111000000000000000000000000000101101101000011111011000011100101100011111111111111111111111101000011
# PASS: opcode 000000, funct 000111
# 	A: 0x00000016, B: 0xd0fb0e58, DUTout: 0xffffff43, REFout: 0xffffff43
# 000000100011000011100011100000001001101011001111010010111001100000111111010100011001011111101000010110110111
# FAIL: Incorrect result for opcode 000000, funct: 100011:
# 	A: 0x0e3809ac, B: 0xf4b983f5, DUTout: 0x197ef7b7, REFout: 0x197e85b7
# 000000100100110000010011101100011001010100001111011010100010010011001111001111000000001000100000100001010000
# PASS: opcode 000000, funct 100100
# 	A: 0xc13b1950, B: 0xf6a24cf3, DUTout: 0xc0220850, REFout: 0xc0220850
# 000000100001010011001000001000011000011110110100111100010010010000100101010010011011100101000101101011001111
# FAIL: Incorrect result for opcode 000000, funct: 100001:
# 	A: 0x4c82187b, B: 0x4f124254, DUTout: 0x9b9466cf, REFout: 0x9b945acf
# 000000000100000000000000000000000000000001001001100010110000010001001011100110001011000001000100101110010000
# FAIL: Incorrect result for opcode 000000, funct: 000100:
# 	A: 0x00000004, B: 0x98b044b9, DUTout: 0x8b000a80, REFout: 0x8b044b90
# 000000101011011111001001000111101110000010101100100011101111010010100001011000000000000000000000000000000001
# PASS: opcode 000000, funct 101011
# 	A: 0x7c91ee0a, B: 0xc8ef4a16, DUTout: 0x00000001, REFout: 0x00000001
# 000000000110000000000000000000000000000100100011111000011011100100111000000100000000000000000000111110000110
# FAIL: Incorrect result for opcode 000000, funct: 000110:
# 	A: 0x00000012, B: 0x3e1b9381, DUTout: 0x00000ea6, REFout: 0x00000f86
# 000000100101011011100100111101011011100010110000100001110011011001111101101101101110011111110111111111011011
# PASS: opcode 000000, funct 100101
# 	A: 0x6e4f5b8b, B: 0x087367db, DUTout: 0x6e7f7fdb, REFout: 0x6e7f7fdb
# 000000100111111001111100100100010001100000100101001011111110110101000111001000001000000000000010101000001101
# PASS: opcode 000000, funct 100111
# 	A: 0xe7c91182, B: 0x52fed472, DUTout: 0x08002a0d, REFout: 0x08002a0d
# 001011000101000101110111110000100101110000100000000000000000000000100011010000000000000000000000000000000000
# FAIL: Incorrect result for opcode 001011, funct: 000101:
# 	A: 0x177c25c2, B: 0x00000234, DUTout: 0x00000200, REFout: 0x00000000
# 001010110100000011011011110010011100110001010000000000000000010011011010000000000000000000000000000000000000
# PASS: opcode 001010, funct 110100
# 	A: 0x0dbc9cc5, B: 0x00004da0, DUTout: 0x00000000, REFout: 0x00000000
# 001100100110111000011110101100000100110011110000000000000000001110110001011100000000000000000000000000000111
# PASS: opcode 001100, funct 100110
# 	A: 0xe1eb04cf, B: 0x00003b17, DUTout: 0x00000007, REFout: 0x00000007
# 101011000111100001111000010111000001001011111111111111111111100110101011111010000111100001010101101111101101
# FAIL: Incorrect result for opcode 101011, funct: 000111:
# 	A: 0x8785c12f, B: 0xffff9abe, DUTout: 0xa7855fed, REFout: 0x87855bed
# 100001101001100100011001111001110011101101111111111111111111100001100111010010010001100111011111101000101011
# FAIL: Incorrect result for opcode 100001, funct: 101001:
# 	A: 0x919e73b7, B: 0xffff8674, DUTout: 0x919dda2b, REFout: 0x919dfa2b
# 100011010110110111110100011001001010110111111111111111111111111001100000111111011111010001100011000011101110
# FAIL: Incorrect result for opcode 100011, funct: 010110:
# 	A: 0xdf464adf, B: 0xffffe60f, DUTout: 0xdf4632ee, REFout: 0xdf4630ee
# 100101011010100000101111011001100100111011101111111111111111100000010001010110000010111101011110011000000011
# FAIL: Incorrect result for opcode 100101, funct: 011010:
# 	A: 0x82f664ee, B: 0xffff8115, DUTout: 0x82f5e403, REFout: 0x82f5e603
# 101001110010111010100000010101111000011110110000000000000000001001011100100111101010000001011001111001000100
# PASS: opcode 101001, funct 110010
# 	A: 0xea05787b, B: 0x000025c9, DUTout: 0xea059e44, REFout: 0xea059e44
# 101000001011110111110110110100111110000111001111111111111111111011101000000111011111011011010010110010011101
# FAIL: Incorrect result for opcode 101000, funct: 001011:
# 	A: 0xdf6d3e1c, B: 0xffffee81, DUTout: 0xdf6d2e9d, REFout: 0xdf6d2c9d
# 001110000100000110101001001111011100001010000000000000000000101111110001100100011010100100110110001100110001
# PASS: opcode 001110, funct 000100
# 	A: 0x1a93dc28, B: 0x0000bf19, DUTout: 0x1a936331, REFout: 0x1a936331
# 100100110001101100010001110010111011000110101111111111111111101000111110011110110001000111000101111100000001
# FAIL: Incorrect result for opcode 100100, funct: 110001:
# 	A: 0xb11cbb1a, B: 0xffffa3e7, DUTout: 0xb11c4901, REFout: 0xb11c5f01
# 001001001001101101001000101010110110000010011111111111111111100100101011010010110100100010100100100010111101
# FAIL: Incorrect result for opcode 001001, funct: 001001:
# 	A: 0xb48ab609, B: 0xffff92b4, DUTout: 0xb48a4abd, REFout: 0xb48a48bd
# 001111000111110101110111100100100101001011010000000000000000011000100011101001100010001110100000000000000000
# PASS: opcode 001111, funct 000111
# 	A: 0xd779252d, B: 0x0000623a, DUTout: 0x623a0000, REFout: 0x623a0000
# 001101011100110000111001111010010011000011000000000000000000101000011111011011000011100111101011001111111110
# PASS: opcode 001101, funct 011100
# 	A: 0xc39e930c, B: 0x0000a1f6, DUTout: 0xc39eb3fe, REFout: 0xc39eb3fe
# 100000111000101100010100101110000000010010001111111111111111111111111011011110110001010010110111111111111111
# FAIL: Incorrect result for opcode 100000, funct: 111000:
# 	A: 0xb14b8048, B: 0xffffffb7, DUTout: 0xb14b79ff, REFout: 0xb14b7fff
# 000000000011000000000000000000000000000010011101010010110100100001110010110111111111111010100101101001000011
# FAIL: Incorrect result for opcode 000000, funct: 000011:
# 	A: 0x00000009, B: 0xd4b4872d, DUTout: 0xfffa5a43, REFout: 0xffea5a43
# 000000100110111000100001010101111100001110001011000111100000011101000011001101010011111101010000100000001011
# PASS: opcode 000000, funct 100110
# 	A: 0xe2157c38, B: 0xb1e07433, DUTout: 0x53f5080b, REFout: 0x53f5080b
# 000000101010110010100110010110100110111111010010010100010111111110011000101000000000000000000000000000000001
# PASS: opcode 000000, funct 101010
# 	A: 0xca65a6fd, B: 0x2517f98a, DUTout: 0x00000001, REFout: 0x00000001
# 000000000010000000000000000000000000000001001000111011111101001011011100001000001000111011111101001011011100
# FAIL: Incorrect result for opcode 000000, funct: 000010:
# 	A: 0x00000004, B: 0x8efd2dc2, DUTout: 0x086fc2dc, REFout: 0x08efd2dc
# 000000000000000000000000000000000000000010101001001001011101100010111110010001110110001011111001000000000000
# FAIL: Incorrect result for opcode 000000, funct: 000000:
# 	A: 0x0000000a, B: 0x925d8be4, DUTout: 0x7a2f8800, REFout: 0x762f9000
# 000000000111000000000000000000000000000111001001110010000001010010001001111111111111111111111111111111111001
# PASS: opcode 000000, funct 000111
# 	A: 0x0000001c, B: 0x9c81489f, DUTout: 0xfffffff9, REFout: 0xfffffff9
# 000000100011000011010000100010100101111011010111010111101010101101100101010010010111000111011110111110011001
# PASS: opcode 000000, funct 100011
# 	A: 0x0d08a5ed, B: 0x75eab654, DUTout: 0x971def99, REFout: 0x971def99
# 000000100100000100000100001101000111111110011000101000011011110101100101010100000000000000110100011001010001
# PASS: opcode 000000, funct 100100
# 	A: 0x104347f9, B: 0x8a1bd655, DUTout: 0x00034651, REFout: 0x00034651
# 000000100001001010011000110100000110000101110010001010011000101001000101010101001100001001011010101001101100
# FAIL: Incorrect result for opcode 000000, funct: 100001:
# 	A: 0x298d0617, B: 0x2298a455, DUTout: 0x5c25ae6c, REFout: 0x4c25aa6c
# 000000000100000000000000000000000000000010010000111000100110001010000110111001001100010100001101110000000000
# FAIL: Incorrect result for opcode 000000, funct: 000100:
# 	A: 0x00000009, B: 0x0e26286e, DUTout: 0x4c40a800, REFout: 0x4c50dc00
# 000000101011101100011110001111100000001110100000001010000001101000110111111100000000000000000000000000000000
# PASS: opcode 000000, funct 101011
# 	A: 0xb1e3e03a, B: 0x0281a37f, DUTout: 0x00000000, REFout: 0x00000000
# 000000000110000000000000000000000000000000100001111001001011101010110010101100000111100100101110101011001010
# FAIL: Incorrect result for opcode 000000, funct: 000110:
# 	A: 0x00000002, B: 0x1e4bab2b, DUTout: 0x0392eaca, REFout: 0x0792eaca
# 000000100101110001011100000111010001010100110110111000010110101101101111101011101111110101111111011111111011
# PASS: opcode 000000, funct 100101
# 	A: 0xc5c1d153, B: 0x6e16b6fa, DUTout: 0xefd7f7fb, REFout: 0xefd7f7fb
# 000000100111000011101111010011010100011000101010001100001011101110010110110001010000000000000000001010010001
# PASS: opcode 000000, funct 100111
# 	A: 0x0ef4d462, B: 0xa30bb96c, DUTout: 0x50000291, REFout: 0x50000291
# 001011010000110000011011000101010101010100000000000000000000000000101101100100000000000000000000000000000000
# FAIL: Incorrect result for opcode 001011, funct: 010000:
# 	A: 0xc1b15550, B: 0x000002d9, DUTout: 0x00000200, REFout: 0x00000000
# 001010011101011000110000110010000111100001001111111111111111110100000000001000000000000000000000000000000000
# PASS: opcode 001010, funct 011101
# 	A: 0x630c8784, B: 0xffffd002, DUTout: 0x00000000, REFout: 0x00000000
# 001100110110101110111001111010011010001111000000000000000000101100100101000100000000000000001001001000010000
# PASS: opcode 001100, funct 110110
# 	A: 0xbb9e9a3c, B: 0x0000b251, DUTout: 0x00009210, REFout: 0x00009210
# 101011000111000001101110110111001111001101000000000000000000001101001101111100000110111011100000010000010011
# PASS: opcode 101011, funct 000111
# 	A: 0x06edcf34, B: 0x000034df, DUTout: 0x06ee0413, REFout: 0x06ee0413
# 100001011010101111111111010010110001110110111111111111111111100111100010111010111111111101000101000000001001
# FAIL: Incorrect result for opcode 100001, funct: 011010:
# 	A: 0xbff4b1db, B: 0xffff9e2e, DUTout: 0xbff44009, REFout: 0xbff45009
# 100011000001100101000011000001100001011111110000000000000000011000011110110010010100001100001100001101101011
# FAIL: Incorrect result for opcode 100011, funct: 000001:
# 	A: 0x9430617f, B: 0x000061ec, DUTout: 0x9430c16b, REFout: 0x9430c36b
# 100101111100010110110001101100001010000110010000000000000000001100010010100101011011000110110011101101000010
# PASS: opcode 100101, funct 111100
# 	A: 0x5b1b0a19, B: 0x00003129, DUTout: 0x5b1b3b42, REFout: 0x5b1b3b42
# 101001011110001011101101011111111101110010111111111111111111100100010011100100101110110101111000111100000100
# FAIL: Incorrect result for opcode 101001, funct: 011110:
# 	A: 0x2ed7fdcb, B: 0xffff9139, DUTout: 0x2ed78b04, REFout: 0x2ed78f04
# 101000010101110011110001101111110000011111001111111111111111100101011110011011001111000110111000011001100010
# PASS: opcode 101000, funct 010101
# 	A: 0xcf1bf07c, B: 0xffff95e6, DUTout: 0xcf1b8662, REFout: 0xcf1b8662
# 001110110011111111110101101001111111110010000000000000000000100110011100011011111111010110101110011000001110
# PASS: opcode 001110, funct 110011
# 	A: 0xff5a7fc8, B: 0x000099c6, DUTout: 0xff5ae60e, REFout: 0xff5ae60e
# 100100011111110111011101111100010001110100001111111111111111101110101000110111011101110111101100110001011101
# FAIL: Incorrect result for opcode 100100, funct: 011111:
# 	A: 0xdddf11d0, B: 0xffffba8d, DUTout: 0xdddec85d, REFout: 0xdddecc5d
# 001001100111100111001100001011011010011001000000000000000000001101100001101110011100110000110001000001111111
# FAIL: Incorrect result for opcode 001001, funct: 100111:
# 	A: 0x9cc2da64, B: 0x0000361b, DUTout: 0x9cc3147f, REFout: 0x9cc3107f
# 001111011101110010011100100011011100000000000000000000000000000101101010110000010110101011000000000000000000
# PASS: opcode 001111, funct 011101
# 	A: 0xc9c8dc00, B: 0x000016ac, DUTout: 0x16ac0000, REFout: 0x16ac0000
# 001101001110101010100001110101111010111010110000000000000000100101011100111010101010000111011111111111101111
# PASS: opcode 001101, funct 001110
# 	A: 0xaa1d7aeb, B: 0x000095ce, DUTout: 0xaa1dffef, REFout: 0xaa1dffef
# 100000100011010011010000010001011110000100110000000000000000000111010101101001001101000001000111101101101101
# FAIL: Incorrect result for opcode 100000, funct: 100011:
# 	A: 0x4d045e13, B: 0x00001d5a, DUTout: 0x4d04796d, REFout: 0x4d047b6d
# 000000000011000000000000000000000000000011001010000110100111100100111100101011111111111110100001101001111001
# PASS: opcode 000000, funct 000011
# 	A: 0x0000000c, B: 0xa1a793ca, DUTout: 0xfffa1a79, REFout: 0xfffa1a79
# 000000100110100011100110001011001000000011001110010100000010001110101100101101101011011000001111001011000111
# PASS: opcode 000000, funct 100110
# 	A: 0x8e62c80c, B: 0xe5023acb, DUTout: 0x6b60f2c7, REFout: 0x6b60f2c7
# 000000101010100010011010100101000000111110010000001011000011011011100001011100000000000000000000000000000001
# PASS: opcode 000000, funct 101010
# 	A: 0x89a940f9, B: 0x02c36e17, DUTout: 0x00000001, REFout: 0x00000001
# 000000000010000000000000000000000000000001111011010011000001011001100100101100000001011010011000001011001100
# FAIL: Incorrect result for opcode 000000, funct: 000010:
# 	A: 0x00000007, B: 0xb4c1664b, DUTout: 0x01e982cc, REFout: 0x016982cc
# 000000000000000000000000000000000000000000110111100101011100111111010101000111001010111001111110101010001000
# FAIL: Incorrect result for opcode 000000, funct: 000000:
# 	A: 0x00000003, B: 0x795cfd51, DUTout: 0xca6fe2c8, REFout: 0xcae7ea88
# 000000000111000000000000000000000000000110011001110100101111110100101110110011111111111111111111111111001110
# PASS: opcode 000000, funct 000111
# 	A: 0x00000019, B: 0x9d2fd2ec, DUTout: 0xffffffce, REFout: 0xffffffce
# 000000100011111110000100011111100101100111000010011010010100101100111001111011010001101100110011000111111110
# PASS: opcode 000000, funct 100011
# 	A: 0xf847e59c, B: 0x2694b39e, DUTout: 0xd1b331fe, REFout: 0xd1b331fe
# 000000100100000000000000101100001101111110110010011000110010111100011101110100000000000000100000000111011001
# PASS: opcode 000000, funct 100100
# 	A: 0x000b0dfb, B: 0x2632f1dd, DUTout: 0x000201d9, REFout: 0x000201d9
# 000000100001010000000000001110011100101010011001110010011101100111000101110111011100101000010011100100000110
